<?xml version="1.0" encoding="UTF-8"?>
<!DOCTYPE svg PUBLIC "-//W3C//DTD SVG 1.1//EN" "http://www.w3.org/Graphics/SVG/1.1/DTD/svg11.dtd">
<!-- Creator: CorelDRAW X8 -->
<svg xmlns="http://www.w3.org/2000/svg" xml:space="preserve" width="210mm" height="297mm" version="1.1" shape-rendering="geometricPrecision" text-rendering="geometricPrecision" image-rendering="optimizeQuality" fill-rule="evenodd" clip-rule="evenodd"
viewBox="0 0 21000 29700"
 xmlns:xlink="http://www.w3.org/1999/xlink">
 <defs>
  <font id="FontID1" horiz-adv-x="606" font-variant="normal" fill-rule="nonzero" font-style="normal" font-weight="700">
	<font-face 
		font-family="Calibri">
		<font-face-src>
			<font-face-name name="Calibri Bold"/>
		</font-face-src>
	</font-face>
   <missing-glyph><path d="M0 0z"/></missing-glyph>
   <glyph unicode="D" horiz-adv-x="630" d="M594 325.331c0,-58 -7.49606,-107.496 -22.6693,-148.827 -15.1654,-41.1732 -36.8268,-74.6693 -65.1654,-100.835 -28.3307,-26 -62.8346,-45.1654 -103.331,-57.3386 -40.5039,-12.1654 -88.8346,-18.3307 -144.835,-18.3307l-150.835 0c-10.8346,0 -19.8346,3.16535 -27.1654,9.50394 -7.33071,6.33071 -11,16.6614 -11,31l0 551c0,14.3307 3.66929,24.6614 11,31 7.33071,6.33071 16.3307,9.49606 27.1654,9.49606l162 0c56.3386,0 104.165,-6.66929 143.339,-19.8346 39.3307,-13.1654 72.3307,-32.6614 99.1654,-58.4961 26.8346,-26 47.3307,-58 61.3307,-96 14,-38.1654 21,-82.1654 21,-132.339zm-133 -4.49606c0,30 -3.49606,57.6693 -10.4961,83.4961 -7,25.6693 -18.1732,47.8346 -33.6693,66.6693 -15.5039,18.8346 -35.3307,33.6693 -59.5039,44.1654 -24.3307,10.5039 -56,15.8346 -95.4961,15.8346l-64.8346 0 0 -429 66.8346 0c35.1654,0 64.8346,4.50394 88.8346,13.6693 24,9 44.1654,22.8346 60.3307,41.1654 16,18.3307 28,41.1654 36,68.4961 8,27.3386 12,59.1732 12,95.5039z"/>
   <glyph unicode="A" horiz-adv-x="606" d="M586.504 47.8346c3.82677,-11.6693 6.33071,-21 7.33071,-27.8346 1,-6.83465 -0.330709,-12 -3.83465,-15.4961 -3.66929,-3.33858 -10,-5.50394 -19.1654,-6.33858 -9,-0.834646 -21.6693,-1.16535 -37.5039,-1.16535 -16.6614,0 -29.6614,0.165354 -38.8268,0.669291 -9.33858,0.496063 -16.3386,1.49606 -21.3386,3 -4.83465,1.49606 -8.16535,3.49606 -10.1654,6.16535 -2,2.49606 -3.66929,6 -4.83465,10.1654l-41.4961 127 -238.339 0 -39.8268 -123.496c-1.33858,-4.66929 -3,-8.50394 -5.17323,-11.5039 -2,-3.16535 -5.49606,-5.49606 -10.1654,-7.33071 -4.66142,-1.83465 -11.3307,-3 -20,-3.66929 -8.66142,-0.669291 -20,-1 -34,-1 -15,0 -26.6614,0.496063 -35.1654,1.49606 -8.49606,1 -14.3307,3.33858 -17.4961,7.00787 -3.33858,3.82677 -4.50394,9.16535 -3.50394,16 1,6.82677 3.50394,15.8268 7.33071,27.3307l194.669 560.835c1.83465,5.49606 4.16535,10 6.83465,13.3307 2.49606,3.50394 6.66929,6 12.3307,7.83465 5.83465,1.83465 13.6693,3 23.8346,3.49606 10,0.503937 23.3307,0.669291 40,0.669291 19.1654,0 34.5039,-0.165354 45.8346,-0.669291 11.4961,-0.496063 20.3307,-1.66142 26.6693,-3.49606 6.33071,-1.83465 10.8268,-4.50394 13.6614,-8 2.66929,-3.66929 5.16535,-8.50394 7,-14.6693l195.339 -560.331zm-290 464l-0.503937 0 -88 -268.835 177.331 0 -88.8268 268.835z"/>
   <glyph unicode="F" horiz-adv-x="459" d="M424 579.331c0,-9.82677 -0.330709,-18 -1.16535,-24.6614 -0.834646,-6.66929 -2.16535,-12 -4,-16 -1.83465,-3.83465 -3.83465,-6.83465 -6,-8.66929 -2.33071,-2 -5,-3 -7.83465,-3l-207 0 0 -170 194.165 0c3,0 5.66929,-0.834646 7.83465,-2.49606 2.33071,-1.50394 4.33071,-4.33858 6.16535,-8.17323 1.83465,-4 3,-9.16535 3.83465,-15.6614 0.834646,-6.50394 1.33071,-14.6693 1.33071,-24.5039 0,-9.66142 -0.496063,-17.8346 -1.33071,-24.3307 -0.834646,-6.50394 -2,-11.8346 -3.83465,-16.1654 -1.83465,-4.16535 -3.83465,-7.16535 -6.16535,-9 -2.16535,-1.83465 -4.83465,-2.66929 -7.83465,-2.66929l-194.165 0 0 -235.496c0,-3.50394 -1,-6.66929 -3,-9.33858 -1.83465,-2.49606 -5.33071,-4.66142 -10.4961,-6.49606 -5,-1.83465 -11.6693,-3.17323 -19.6693,-4.17323 -8.16535,-1 -18.6693,-1.49606 -31.3307,-1.49606 -12.3386,0 -22.6693,0.496063 -31,1.49606 -8.33858,1 -15,2.33858 -19.8346,4.17323 -4.83465,1.66142 -8.33858,4 -10.5039,6.49606 -2.16535,2.66929 -3.16535,5.83465 -3.16535,9.33858l0 573c0,14.3307 3.66929,24.6614 11,31 7.33071,6.33071 16.3307,9.49606 27.1654,9.49606l297.835 0c2.83465,0 5.50394,-0.834646 7.83465,-2.66929 2.16535,-1.82677 4.16535,-4.66142 6,-8.82677 1.83465,-4 3.16535,-9.50394 4,-16.3386 0.834646,-6.83465 1.16535,-15.1654 1.16535,-24.8346z"/>
   <glyph unicode="C" horiz-adv-x="529" d="M506 95.5039c0,-8.17323 -0.165354,-15.1732 -0.669291,-20.8346 -0.496063,-5.66929 -1.33071,-10.6693 -2.33071,-14.6693 -0.834646,-4.16535 -2.16535,-7.66929 -3.83465,-10.6693 -1.66142,-2.82677 -4.16535,-6.16535 -7.83465,-9.82677 -3.49606,-3.66929 -10.4961,-8.50394 -20.6614,-14.3386 -10.3386,-5.66142 -22.8346,-11.3307 -37.6693,-16.6614 -14.8346,-5.17323 -31.6693,-9.66929 -50.6693,-13.1732 -19,-3.49606 -39.6614,-5.33071 -61.8268,-5.33071 -43.1732,0 -82.1732,6.66929 -117,20 -34.8346,13.3307 -64.5039,33.3307 -88.8346,59.8346 -24.5039,26.4961 -43.1654,59.4961 -56.1654,99.3307 -13,39.6693 -19.5039,85.8346 -19.5039,138.504 0,53.6614 7.16535,101.331 21.5039,143 14.3307,41.6614 34.3307,76.6614 60,105 25.6614,28.3307 56.4961,49.6614 92.4961,64.3307 35.8346,14.6693 75.5039,22 118.835,22 17.4961,0 34.3307,-1.49606 50.6693,-4.49606 16.3307,-2.83465 31.3307,-6.66929 45.1654,-11.5039 13.8346,-4.66929 26.1654,-10.1654 37.3307,-16.3307 11,-6.33858 18.8346,-11.6693 23.1654,-16 4.33858,-4.50394 7.33858,-8.16535 9,-11 1.66929,-3 3,-6.66929 3.83465,-11.1654 1,-4.66929 1.83465,-10 2.33071,-16.1732 0.503937,-6.16535 0.669291,-13.6614 0.669291,-22.8268 0,-9.66929 -0.330709,-18 -1,-24.8346 -0.669291,-6.83465 -1.83465,-12.3386 -3.33071,-16.5039 -1.66929,-4.16535 -3.66929,-7.33071 -5.83465,-9.16535 -2.33071,-2 -5,-3 -7.83465,-3 -4.83465,0 -11,2.83465 -18.4961,8.50394 -7.50394,5.66142 -17.1732,12 -29,19 -11.8346,7 -26,13.3307 -42.5039,19 -16.3307,5.66142 -35.8346,8.49606 -58.6693,8.49606 -25,0 -47.3307,-5.16535 -67,-15.3307 -19.6614,-10.3386 -36.3307,-24.8346 -50.1654,-43.8346 -13.8346,-19.1654 -24.3307,-42.1654 -31.4961,-69.1654 -7.16535,-26.8346 -10.6693,-57.3386 -10.6693,-91.1654 0,-37 3.83465,-69.1732 11.5039,-96.3386 7.66142,-27 18.4961,-49.4961 32.6614,-67 14,-17.4961 31.1654,-30.6614 51.1654,-39.1654 20,-8.66929 42.5039,-13 67.5039,-13 22.6693,0 42.3307,2.66929 59,8 16.4961,5.33071 30.6693,11.3307 42.4961,17.6693 12,6.49606 21.6693,12.3307 29.3386,17.4961 7.66142,5.16535 13.4961,7.83465 17.8346,7.83465 3.16535,0 5.82677,-0.669291 7.66142,-2 2,-1.33071 3.66929,-3.83465 5,-7.83465 1.16535,-3.83465 2.16535,-9.33071 2.83465,-16.3307 0.669291,-7.16535 1,-16.5039 1,-28.3307z"/>
   <glyph unicode="H" horiz-adv-x="630" d="M562 17.5039c0,-3.17323 -1,-6.17323 -3.16535,-8.83465 -2.16535,-2.50394 -5.66929,-4.66929 -10.5039,-6.33858 -4.82677,-1.49606 -11.3307,-2.83465 -19.4961,-3.83465 -8,-1 -18.3307,-1.49606 -30.5039,-1.49606 -12.6614,0 -23.1654,0.496063 -31.4961,1.49606 -8.33071,1 -14.6693,2.33858 -19.5039,3.83465 -4.66142,1.66929 -8,3.83465 -10.1654,6.33858 -2.16535,2.66142 -3.16535,5.66142 -3.16535,8.83465l0 255.496 -237 0 0 -255.496c0,-3.17323 -1,-6.17323 -3,-8.83465 -1.83465,-2.50394 -5.33071,-4.66929 -10.1654,-6.33858 -4.83465,-1.49606 -11.3307,-2.83465 -19.5039,-3.83465 -8,-1 -18.4961,-1.49606 -31,-1.49606 -12.3307,0 -22.6614,0.496063 -31,1.49606 -8.33071,1 -14.8268,2.33858 -19.6614,3.83465 -4.83465,1.66929 -8.33858,3.83465 -10.5039,6.33858 -2.16535,2.66142 -3.16535,5.66142 -3.16535,8.83465l0 597c0,3.16535 1,6.16535 3.16535,8.82677 2.16535,2.50394 5.66929,4.66929 10.5039,6.33858 4.83465,1.66142 11.3307,2.83465 19.6614,3.83465 8.33858,1 18.6693,1.49606 31,1.49606 12.5039,0 23,-0.496063 31,-1.49606 8.17323,-1 14.6693,-2.33858 19.5039,-3.83465 4.83465,-1.66929 8.33071,-3.83465 10.1654,-6.33858 2,-2.66142 3,-5.66142 3,-8.82677l0 -232.504 237 0 0 232.504c0,3.16535 1,6.16535 3.16535,8.82677 2.16535,2.50394 5.50394,4.66929 10.1654,6.33858 4.83465,1.49606 11.1732,2.83465 19.5039,3.83465 8.33071,1 18.8346,1.49606 31.4961,1.49606 12.1732,0 22.5039,-0.496063 30.5039,-1.49606 8.16535,-1 14.6693,-2.17323 19.4961,-3.83465 4.83465,-1.66929 8.33858,-3.83465 10.5039,-6.33858 2.16535,-2.66142 3.16535,-5.66142 3.16535,-8.82677l0 -597z"/>
   <glyph unicode="E" horiz-adv-x="487" d="M443 50.5039c0,-9.50394 -0.330709,-17.3386 -1.16535,-23.8346 -0.834646,-6.33858 -2,-11.5039 -3.66929,-15.3386 -1.66142,-4 -3.66142,-6.82677 -6.16535,-8.66142 -2.33071,-1.83465 -5.16535,-2.66929 -8,-2.66929l-317 0c-10.6693,0 -19.6693,3.16535 -27,9.50394 -7.33071,6.33071 -11,16.6614 -11,31l0 551c0,14.3307 3.66929,24.6614 11,31 7.33071,6.33071 16.3307,9.49606 27,9.49606l315.504 0c2.82677,0 5.49606,-0.834646 7.82677,-2.49606 2.17323,-1.66929 4.17323,-4.50394 5.83465,-8.50394 1.50394,-4.16535 2.83465,-9.33071 3.66929,-15.6693 0.834646,-6.49606 1.16535,-14.4961 1.16535,-24.3307 0,-9.16535 -0.330709,-16.8346 -1.16535,-23.3307 -0.834646,-6.33858 -2,-11.5039 -3.66929,-15.3386 -1.66142,-4 -3.66142,-6.82677 -5.83465,-8.66142 -2.33071,-1.83465 -5,-2.66929 -7.82677,-2.66929l-225.504 0 0 -154 190 0c3,0 5.66929,-0.834646 8,-2.66929 2.50394,-1.82677 4.50394,-4.49606 6.16535,-8.33071 1.66929,-3.66929 2.83465,-8.66929 3.66929,-15.1654 0.834646,-6.33071 1.16535,-14 1.16535,-23 0,-9.50394 -0.330709,-17.3307 -1.16535,-23.5039 -0.834646,-6.16535 -2,-11.1654 -3.66929,-14.8268 -1.66142,-3.83465 -3.66142,-6.50394 -6.16535,-8 -2.33071,-1.66929 -5,-2.50394 -8,-2.50394l-190 0 0 -178 227 0c3,0 5.66929,-0.834646 8,-2.66929 2.50394,-1.82677 4.50394,-4.66142 6.16535,-8.66142 1.66929,-3.83465 2.83465,-9 3.66929,-15.3386 0.834646,-6.49606 1.16535,-14.3307 1.16535,-23.8268z"/>
   <glyph unicode="B" horiz-adv-x="560" d="M526 189.669c0,-22.5039 -3.16535,-42.8346 -9.33071,-61.1654 -6.16535,-18.1732 -14.6693,-34.3386 -25.5039,-48.3386 -11,-14 -24,-26 -39,-36.1654 -15.1654,-10.1654 -31.8346,-18.3307 -50,-25 -18.1654,-6.49606 -37.6614,-11.3307 -58.3307,-14.3307 -20.6693,-3.16535 -43.6693,-4.66929 -69,-4.66929l-167.835 0c-10.6693,0 -19.6693,3.16535 -27,9.50394 -7.33071,6.33071 -11,16.6614 -11,31l0 551c0,14.3307 3.66929,24.6614 11,31 7.33071,6.33071 16.3307,9.49606 27,9.49606l158.331 0c38.6693,0 71.3386,-3.33071 98.1732,-9.83465 26.8268,-6.49606 49.3307,-16.3307 67.6614,-29.4961 18.5039,-13.1654 32.5039,-29.8346 42.1654,-50 9.83465,-20.1654 14.6693,-43.8346 14.6693,-71.1654 0,-15.3386 -2,-29.6693 -5.83465,-43.1732 -3.83465,-13.4961 -9.66142,-25.8268 -17,-36.8268 -7.49606,-11.1732 -16.6614,-20.8346 -27.6614,-29.3386 -10.8346,-8.49606 -23.1732,-15.3307 -37.1732,-20.4961 17.8346,-3.33858 34.5039,-9 49.6693,-17.1654 15.1654,-8.17323 28.3307,-18.6693 39.5039,-31.5039 11.3307,-12.8346 20.1654,-28 26.6614,-45.1654 6.50394,-17.3307 9.83465,-36.6693 9.83465,-58.1654zm-166 266.331c0,12.6693 -2,24 -5.83465,34.1654 -3.83465,10 -9.66142,18.5039 -17.4961,25.1654 -7.83465,6.66929 -17.6693,11.6693 -29.5039,15.3386 -11.8346,3.49606 -27.6614,5.33071 -47.4961,5.33071l-64.6693 0 0 -164 71.5039 0c18.4961,0 33.3307,2.16535 44.3307,6.66929 11,4.33071 20.1654,10.3307 27.4961,18 7.33858,7.66142 12.6693,16.6614 16.3386,26.8346 3.49606,10.3307 5.33071,21 5.33071,32.4961zm33 -271c0,14.6693 -2.49606,27.8346 -7.33071,39.5039 -4.83465,11.4961 -12,21.1654 -21.5039,29 -9.33071,7.82677 -21.3307,13.8268 -36,18.1654 -14.6614,4.16535 -33.6614,6.33071 -57.1654,6.33071l-76 0 0 -180 92.6693 0c17.8346,0 32.8346,1.83465 45.1654,5.66929 12.1654,3.66142 22.6693,9.33071 31.6693,16.6614 8.82677,7.33858 15.8268,16.3386 21,27.3386 5,10.8346 7.49606,23.3307 7.49606,37.3307z"/>
   <glyph unicode="G" horiz-adv-x="637" d="M576 533.669c0,-9.33858 -0.330709,-17.5039 -1.16535,-24.3386 -0.834646,-6.82677 -2,-12.3307 -3.50394,-16.3307 -1.49606,-4.16535 -3.16535,-7 -5.33071,-8.49606 -2.16535,-1.66929 -4.66929,-2.50394 -7.49606,-2.50394 -4.33858,0 -11.1732,3 -20.5039,8.83465 -9.49606,5.83465 -22,12.3307 -37.6693,19.1654 -15.6614,6.83465 -34.1654,13.3307 -55.8268,19.1654 -21.6693,5.83465 -46.8346,8.83465 -75.5039,8.83465 -30.4961,0 -58.1654,-5.33071 -82.8346,-15.8346 -24.8346,-10.6614 -46,-25.6614 -63.4961,-45 -17.5039,-19.4961 -31,-42.6614 -40.5039,-70 -9.49606,-27.1654 -14.1654,-57.1654 -14.1654,-90.1654 0,-36.1654 4.83465,-68 14.3307,-95.6693 9.66929,-27.4961 23.1732,-50.4961 40.3386,-69.1654 17.3307,-18.4961 38.1654,-32.4961 62.3307,-42 24.3307,-9.49606 51.1654,-14.1654 80.3307,-14.1654 14.3386,0 28.5039,1.66929 42.5039,4.83465 14.1654,3.33071 27.1654,8.33071 39.1654,14.8346l0 147.331 -119.496 0c-5.83465,0 -10.3386,3.66929 -13.6693,11 -3.16535,7.33071 -4.83465,19.6693 -4.83465,37.3307 0,9 0.330709,16.6693 1.16535,22.8346 0.834646,6.16535 2.16535,11.1654 3.66929,14.8346 1.66929,3.83465 3.66929,6.50394 5.83465,8.33071 2.33071,1.83465 5,2.66929 7.83465,2.66929l213.331 0c5.16535,0 9.83465,-0.834646 13.8346,-2.66929 4.16535,-1.82677 7.66142,-4.49606 10.8346,-8.16535 3,-3.49606 5.49606,-7.83465 7,-12.8346 1.66142,-5.16535 2.49606,-11 2.49606,-17.4961l0 -252c0,-9.83465 -1.66929,-18.3307 -5.16535,-25.6693 -3.33071,-7.33071 -10.3307,-13.1654 -21,-17.3307 -10.5039,-4.33071 -23.6693,-8.66929 -39.3307,-13.3307 -15.6693,-4.50394 -31.8346,-8.50394 -48.6693,-11.6693 -16.6693,-3.33858 -33.6693,-5.83465 -50.8346,-7.33858 -17,-1.66142 -34.1654,-2.49606 -51.4961,-2.49606 -50.5039,0 -95.6693,7.33071 -135.669,21.8346 -39.8346,14.4961 -73.6693,35.4961 -101.331,63 -27.6693,27.4961 -48.8346,61 -63.5039,100.669 -14.6693,39.6614 -22,84.4961 -22,134.661 0,51.8346 7.83465,98.3386 23.5039,139.504 15.4961,41.3307 37.6614,76.3307 66.3307,105.165 28.6693,28.8346 63.1654,50.8346 103.835,66.1654 40.4961,15.3307 85.6614,23 135.331,23 27.5039,0 52.3307,-1.83465 74.8346,-5.66929 22.3307,-3.82677 42,-8.33071 58.8346,-13.8268 16.6614,-5.33858 30.6614,-11.1732 41.6614,-17.3386 11.1732,-6.33071 18.8346,-11.6614 23.1732,-16.3307 4.49606,-4.50394 7.66142,-11 9.49606,-19.3307 2,-8.17323 3,-20.5039 3,-36.8346z"/>
  </font>
  <font id="FontID0" horiz-adv-x="578" font-variant="normal" fill-rule="nonzero" font-style="normal" font-weight="400">
	<font-face 
		font-family="Calibri">
		<font-face-src>
			<font-face-name name="Calibri"/>
		</font-face-src>
	</font-face>
   <missing-glyph><path d="M0 0z"/></missing-glyph>
   <glyph unicode="f" horiz-adv-x="305" d="M316 632.661c0,-6.15748 -0.330709,-11.1654 -0.992126,-14.9921 -0.677165,-3.66929 -1.33858,-6.66142 -2.17323,-9.00787 -0.834646,-2.15748 -1.82677,-3.82677 -3.16535,-4.66142 -1.33858,-0.661417 -3.00787,-1.16535 -4.83465,-1.16535 -2.33071,0 -5.16535,0.661417 -8.66142,2.17323 -3.51181,1.49606 -7.51181,3.16535 -12.5039,4.99213 -4.83465,1.66929 -10.6614,3.33858 -17.3386,4.83465 -6.66142,1.49606 -14.5039,2.17323 -23.3228,2.17323 -12,0 -22.3465,-2 -30.8346,-5.84252 -8.34646,-4 -15.3386,-10.1575 -20.5039,-18.5039 -5.16535,-8.33071 -9.00787,-18.9921 -11.1654,-32.3307 -2.33071,-13.1654 -3.49606,-29.3228 -3.49606,-48.3307l0 -48 98 0c2.48819,0 4.66142,-0.503937 6.48819,-1.66929 1.84252,-1.16535 3.33858,-3.16535 4.83465,-5.82677 1.49606,-2.83465 2.67717,-6.33071 3.49606,-10.6772 0.834646,-4.15748 1.1811,-9.32283 1.1811,-15.4961 0,-11.8268 -1.51181,-20.3307 -4.34646,-25.4961 -2.99213,-5.16535 -6.83465,-7.82677 -11.6535,-7.82677l-98 0 0 -384.835c0,-2.67717 -0.677165,-4.83465 -2,-6.67717 -1.33858,-1.66929 -3.51181,-3.32283 -6.50394,-4.66142 -3.16535,-1.16535 -7.33858,-2.17323 -12.5039,-2.83465 -5.16535,-0.661417 -11.6693,-1.00787 -19.4961,-1.00787 -7.84252,0 -14.3307,0.346457 -19.4961,1.00787 -5.1811,0.661417 -9.33858,1.66929 -12.5039,2.83465 -3.00787,1.33858 -5.16535,2.99213 -6.50394,4.66142 -1.33858,1.84252 -2,4 -2,6.67717l0 384.835 -62.3307 0c-5.16535,0 -9.16535,2.66142 -11.6693,7.82677 -2.66142,5.16535 -4,13.6693 -4,25.4961 0,6.17323 0.330709,11.3386 1.00787,15.4961 0.661417,4.34646 1.65354,7.84252 2.99213,10.6772 1.16535,2.66142 2.83465,4.66142 4.83465,5.82677 2,1.16535 4.33071,1.66929 6.83465,1.66929l62.3307 0 0 45.4961c0,30.8346 2.83465,57.1654 8.50394,79.1654 5.82677,22 14.5039,40.1732 26.1575,54.1732 11.8425,14 26.5039,24.5039 44.3465,31.1654 17.6535,6.66142 38.6614,10 62.8189,10 11.3386,0 22.5039,-0.992126 33.1811,-3.16535 10.8189,-2.17323 19.1654,-4.33071 24.9921,-6.83465 5.82677,-2.50394 9.66929,-4.66142 11.6693,-6.66142 2,-1.84252 3.66929,-4.50394 4.83465,-7.51181 1.32283,-3.16535 2.33071,-6.8189 2.83465,-11.3228 0.488189,-4.33071 0.661417,-9.66929 0.661417,-15.8425z"/>
   <glyph unicode="3" horiz-adv-x="506" d="M446 180.835c0,-28.8346 -4.99213,-55.0079 -15.1654,-78.3307 -10,-23.1654 -24.5039,-43.1654 -43.4961,-59.8425 -18.8346,-16.4882 -42.1732,-29.3228 -69.8425,-38.1575 -27.6693,-9.00787 -58.8346,-13.5118 -93.6693,-13.5118 -21.1654,0 -40.9921,1.66929 -59.3228,5.1811 -18.3307,3.32283 -34.6772,7.32283 -49.0079,12 -14.3307,4.83465 -26.3307,9.65354 -35.6693,14.6614 -9.49606,4.99213 -15.4961,8.66142 -17.8268,10.8346 -2.50394,2.33071 -4.33071,4.66142 -5.66929,6.83465 -1.32283,2.33071 -2.50394,4.99213 -3.32283,8.33071 -1.00787,3.16535 -1.84252,7.16535 -2.34646,11.8268 -0.488189,4.67717 -0.661417,10.5039 -0.661417,17.3386 0,11.4961 1.16535,19.6693 3.49606,24.1732 2.33071,4.48819 5.66929,6.83465 10,6.83465 3.00787,0 9.00787,-2.67717 17.8425,-7.84252 8.83465,-5.16535 20.1575,-10.6614 34,-16.6614 13.8268,-6 30,-11.4961 48.6614,-16.6772 18.5039,-5.16535 39.1654,-7.82677 61.8268,-7.82677 22,0 41.3386,2.83465 58,8.33071 16.6772,5.49606 30.8346,13.3386 42.1732,23.4961 11.3386,10.1732 19.8268,22.1732 25.4961,36 5.66929,13.8425 8.50394,28.8346 8.50394,45.1811 0,18 -3.66929,34.1575 -10.8346,48.4882 -7.16535,14.3307 -17.8268,26.8346 -31.8268,37.1654 -13.8425,10.5039 -31.0079,18.5039 -51.3386,24 -20.3307,5.51181 -43.4961,8.34646 -69.3386,8.34646l-62 0c-2.66142,0 -5.32283,0.488189 -7.82677,1.65354 -2.50394,1.16535 -4.66142,3.00787 -6.50394,5.66929 -1.82677,2.50394 -3.32283,6 -4.50394,10.1732 -1.16535,4.15748 -1.82677,9.66929 -1.82677,16.5039 0,6.15748 0.503937,11.1654 1.49606,15.3228 1.00787,4 2.33071,7.16535 4.17323,9.66929 1.82677,2.33071 3.82677,4.17323 6,5.33858 2.33071,1.16535 4.99213,1.66929 7.82677,1.66929l55.3386 0c21.3386,0 40.6614,2.8189 57.8268,8.33071 17.0079,5.49606 31.5118,13.4961 43.5118,24 11.8268,10.3307 20.9921,22.8346 27.3228,37.3228 6.33071,14.5039 9.51181,30.6772 9.51181,48.6772 0,12.9921 -2.17323,25.3228 -6.34646,37.3228 -4.15748,11.8425 -10.4882,22.1732 -18.9921,31.0079 -8.50394,8.83465 -19.3386,15.6693 -32.5039,20.8346 -13.1654,4.99213 -28.3307,7.49606 -45.4961,7.49606 -19.0079,0 -36.1732,-2.83465 -52,-8.66142 -15.8425,-5.66929 -29.8425,-11.8425 -42.1732,-18.3307 -12.3307,-6.50394 -22.6614,-12.6772 -30.8346,-18.3465 -8,-5.82677 -13.8268,-8.66142 -16.9921,-8.66142 -2.33071,0 -4.33071,0.330709 -6.17323,1.16535 -1.66929,0.834646 -3.16535,2.50394 -4.33071,5.00787 -1.16535,2.33071 -2,5.82677 -2.50394,10.1575 -0.488189,4.33071 -0.661417,10.1732 -0.661417,17.3386 0,4.83465 0.173228,9.16535 0.503937,12.9921 0.330709,3.66929 0.992126,7.00787 2,9.66929 0.992126,2.83465 2,5.33858 3.32283,7.66929 1.33858,2.17323 3.51181,4.83465 6.67717,8 2.99213,3.00787 9.32283,7.49606 18.6614,13.3386 9.49606,6 21.1654,11.6693 35.0079,17.3228 13.8268,5.84252 29.8268,10.5039 47.8268,14.5039 18,3.84252 37.4961,5.84252 58.3307,5.84252 29.3386,0 55.0079,-3.66929 77.1654,-11.1811 22,-7.49606 40.5039,-18.1575 55.3386,-31.8268 14.8346,-13.4961 25.8268,-29.8268 33.1654,-48.9921 7.33858,-19.0079 11.0079,-40 11.0079,-63.1811 0,-19.8268 -2.67717,-38.1575 -7.84252,-55.3228 -5.16535,-17.0079 -12.8346,-32.1732 -22.9921,-45.3386 -10,-13.1654 -22.5039,-24.3307 -37.1654,-33.6693 -14.6772,-9.32283 -31.5118,-15.6693 -50.6772,-19.1654l0 -0.992126c21.6693,-2.33071 41.6693,-7.84252 59.6693,-16.3307 18,-8.67717 33.4961,-19.5118 46.5039,-32.5039 12.9921,-13.0079 23.1654,-28.3307 30.5039,-45.6693 7.32283,-17.4961 10.9921,-36 10.9921,-56z"/>
   <glyph unicode="A" horiz-adv-x="578" d="M557.165 29.6693c2.50394,-7.16535 4,-12.8346 4.17323,-17.3386 0.15748,-4.33071 -1.16535,-7.66929 -3.66929,-10 -2.66142,-2.15748 -7.00787,-3.66929 -13.0079,-4.33071 -6,-0.661417 -14,-1.00787 -24.1575,-1.00787 -10,0 -18.1732,0.173228 -24.1732,0.677165 -6,0.503937 -10.5039,1.32283 -13.6693,2.50394 -3.16535,1.16535 -5.32283,2.66142 -6.83465,4.66142 -1.49606,2 -2.8189,4.33071 -4.15748,7.33858l-54.1732 153.827 -262.661 0 -51.8268 -151.827c-1.00787,-3.00787 -2.17323,-5.51181 -3.84252,-7.66929 -1.66929,-2.17323 -4,-3.84252 -7.16535,-5.33858 -2.99213,-1.49606 -7.49606,-2.50394 -13.1654,-3.16535 -5.66929,-0.661417 -13.0079,-1.00787 -22.1732,-1.00787 -9.49606,0 -17.1654,0.346457 -23.1654,1.1811 -6,0.818898 -10.3307,2.33071 -12.6614,4.66142 -2.50394,2.33071 -3.66929,5.66929 -3.49606,10 0.15748,4.50394 1.49606,10.1732 4.15748,17.3386l211.843 587.165c1.32283,3.66929 3.16535,6.66142 5.16535,8.83465 2.15748,2.33071 5.16535,4.15748 9.32283,5.32283 4,1.33858 9.1811,2.33071 15.6693,2.83465 6.33071,0.503937 14.3307,0.677165 24.1732,0.677165 10.3307,0 18.9921,-0.173228 25.8268,-0.677165 6.83465,-0.503937 12.3307,-1.49606 16.5039,-2.83465 4.33071,-1.16535 7.49606,-3.16535 9.82677,-5.49606 2.34646,-2.50394 4.17323,-5.49606 5.33858,-8.99213l212 -587.339zm-272 518.331l-0.503937 0 -108.835 -314.992 219.669 0 -110.331 314.992z"/>
   <glyph unicode="t" horiz-adv-x="335" d="M303.008 44.8346c0,-9.49606 -0.677165,-17.0079 -2,-22.5039 -1.1811,-5.49606 -3.1811,-9.66929 -5.84252,-12.1575 -2.50394,-2.67717 -6.50394,-5.16535 -11.6693,-7.33858 -5.16535,-2.33071 -11.1654,-4.17323 -17.8268,-5.66929 -6.66142,-1.49606 -13.6693,-2.66142 -21.1654,-3.66929 -7.49606,-0.992126 -14.8346,-1.49606 -22.3307,-1.49606 -22.8346,0 -42.3465,2.99213 -58.5039,9.00787 -16.1732,6 -29.4961,15.1654 -40,27.3228 -10.3307,12.1732 -17.8425,27.6693 -22.6614,46.3307 -4.67717,18.6772 -7.00787,40.6772 -7.00787,66l0 256.346 -61.8268 0c-4.83465,0 -8.83465,2.66142 -11.8425,7.82677 -2.83465,5.16535 -4.33071,13.6693 -4.33071,25.4961 0,6.17323 0.330709,11.3386 1.16535,15.4961 0.834646,4.34646 2,7.84252 3.16535,10.6772 1.33858,2.66142 3.16535,4.66142 5.16535,5.82677 2.17323,1.16535 4.50394,1.66929 7.16535,1.66929l61.3386 0 0 104.331c0,2.33071 0.503937,4.50394 1.66929,6.33071 1.16535,2 3.33858,3.66929 6.50394,5.16535 2.99213,1.51181 7.16535,2.50394 12.4882,3.1811 5.16535,0.661417 11.6693,0.992126 19.6693,0.992126 8.17323,0 14.8346,-0.330709 20,-0.992126 5.33858,-0.677165 9.33858,-1.66929 12.3307,-3.1811 3.00787,-1.49606 5.00787,-3.16535 6.34646,-5.16535 1.32283,-1.82677 2,-4 2,-6.33071l0 -104.331 112 0c2.66142,0 4.8189,-0.503937 6.8189,-1.66929 1.84252,-1.16535 3.66929,-3.16535 5.00787,-5.82677 1.49606,-2.83465 2.50394,-6.33071 3.16535,-10.6772 0.661417,-4.15748 1.00787,-9.32283 1.00787,-15.4961 0,-11.8268 -1.51181,-20.3307 -4.34646,-25.4961 -2.99213,-5.16535 -6.83465,-7.82677 -11.6535,-7.82677l-112 0 0 -244.504c0,-30.1732 4.48819,-53.0079 13.3228,-68.3307 8.83465,-15.5118 24.8346,-23.1654 47.8425,-23.1654 7.32283,0 14,0.661417 19.8268,2.15748 5.82677,1.49606 11.0079,3.00787 15.4961,4.66142 4.50394,1.66929 8.33071,3.1811 11.6693,4.67717 3.16535,1.49606 6.17323,2.15748 8.66142,2.15748 1.66929,0 3.1811,-0.330709 4.67717,-1.16535 1.32283,-0.834646 2.50394,-2.33071 3.32283,-4.66142 0.834646,-2.33071 1.51181,-5.33858 2.17323,-9.33858 0.661417,-3.82677 1.00787,-8.83465 1.00787,-14.6614z"/>
   <glyph unicode="c" horiz-adv-x="422" d="M391.008 79.8268c0,-5.49606 -0.173228,-10.3307 -0.503937,-14.3307 -0.330709,-4.15748 -0.834646,-7.49606 -1.66929,-10.3307 -0.834646,-2.83465 -1.82677,-5.16535 -3.00787,-7.33858 -1.16535,-2.15748 -3.65354,-5.32283 -7.82677,-9.32283 -4,-4.17323 -10.9921,-9.16535 -20.6614,-15.3386 -9.84252,-6 -20.8346,-11.4961 -33.0079,-16.1575 -12.3307,-4.83465 -25.4961,-8.67717 -39.8268,-11.5118 -14.3307,-2.99213 -29.1654,-4.50394 -44.5039,-4.50394 -31.6693,0 -59.6693,5.1811 -84,15.6693 -24.5039,10.3465 -44.9921,25.5118 -61.3386,45.5118 -16.4882,20 -28.9921,44.6614 -37.6535,73.6535 -8.67717,29.1811 -13.0079,62.6772 -13.0079,100.835 0,43.1654 5.33858,80.3465 15.8268,111.512 10.6772,30.9921 25.1811,56.4882 43.5118,76.3307 18.4882,19.8268 40.1575,34.5039 64.9921,44.1575 25.0079,9.51181 52,14.3465 81.0079,14.3465 14,0 27.4961,-1.33858 40.6614,-4 13.3386,-2.50394 25.3386,-6 36.5039,-10.1732 10.9921,-4.33071 20.9921,-9.16535 29.4961,-14.8346 8.66142,-5.49606 15.0079,-10.3307 18.8346,-14.1732 4,-4 6.66142,-7.16535 8.17323,-9.32283 1.32283,-2.33071 2.66142,-5.00787 3.65354,-8.17323 0.834646,-2.99213 1.51181,-6.50394 1.84252,-10.5039 0.330709,-3.82677 0.503937,-8.8189 0.503937,-14.6614 0,-12.6614 -1.51181,-21.4961 -4.34646,-26.6614 -2.99213,-5.00787 -6.48819,-7.49606 -10.8346,-7.49606 -4.8189,0 -10.4882,2.66142 -16.8189,8.15748 -6.34646,5.33858 -14.3465,11.3386 -24.1732,17.8425 -9.82677,6.48819 -21.6693,12.4882 -35.4961,17.8268 -13.8425,5.49606 -30.1732,8.17323 -49.0079,8.17323 -38.8346,0 -68.6614,-14.8346 -89.3228,-44.6772 -20.6772,-29.6693 -31.0079,-72.8346 -31.0079,-129.323 0,-28.1732 2.66142,-53.0079 8,-74.3465 5.49606,-21.1654 13.3386,-38.9921 23.8268,-53.3228 10.3465,-14.1732 23.1811,-24.8346 38.3465,-31.8425 15.1654,-6.99213 32.4882,-10.4882 52,-10.4882 18.6614,0 34.9921,2.99213 48.9921,8.8189 14,5.84252 26,12.3465 36.3307,19.5118 10.3307,6.99213 19.0079,13.3228 26,18.9921 7.00787,5.84252 12.3307,8.67717 16.3307,8.67717 2.17323,0 4.17323,-0.677165 5.84252,-2 1.66929,-1.33858 2.99213,-3.51181 4.15748,-6.50394 1.1811,-3.16535 2,-7.00787 2.50394,-11.8425 0.503937,-4.66142 0.677165,-10.3307 0.677165,-16.8346z"/>
   <glyph unicode="n" horiz-adv-x="525" d="M453.008 12.1732c0,-2.67717 -0.677165,-4.83465 -2,-6.67717 -1.33858,-1.66929 -3.33858,-3.32283 -6.34646,-4.66142 -2.99213,-1.16535 -6.99213,-2.17323 -12.3307,-2.83465 -5.16535,-0.661417 -11.6693,-1.00787 -19.4961,-1.00787 -8.33071,0 -15.0079,0.346457 -20.1732,1.00787 -5.32283,0.661417 -9.32283,1.66929 -12.3307,2.83465 -2.99213,1.33858 -4.99213,2.99213 -6.33071,4.66142 -1.33858,1.84252 -2,4 -2,6.67717l0 257.496c0,24.9921 -2,45.3386 -5.82677,60.5039 -3.84252,15.3228 -9.51181,28.4882 -17.0079,39.6535 -7.49606,11.0079 -16.9921,19.5118 -28.8346,25.3386 -11.8268,5.84252 -25.4961,8.83465 -40.9921,8.83465 -20.1732,0 -40.1732,-7.16535 -60.1732,-21.4961 -20.1575,-14.3307 -41.1654,-35.3386 -63.1654,-63.0079l0 -307.323c0,-2.67717 -0.661417,-4.83465 -2,-6.67717 -1.33858,-1.66929 -3.33858,-3.32283 -6.33071,-4.66142 -3.00787,-1.16535 -7.00787,-2.17323 -12.3307,-2.83465 -5.16535,-0.661417 -11.8425,-1.00787 -20,-1.00787 -8,0 -14.5039,0.346457 -19.6693,1.00787 -5.33858,0.661417 -9.49606,1.66929 -12.5039,2.83465 -3.16535,1.33858 -5.33858,2.99213 -6.50394,4.66142 -1.16535,1.84252 -1.65354,4 -1.65354,6.67717l0 439.654c0,2.67717 0.488189,4.83465 1.49606,6.67717 0.992126,1.66929 2.83465,3.32283 5.82677,4.83465 3.00787,1.49606 6.67717,2.48819 11.3386,2.99213 4.50394,0.503937 10.6614,0.677165 18.1575,0.677165 7.1811,0 13.1811,-0.173228 17.8425,-0.677165 4.83465,-0.503937 8.50394,-1.49606 11.1654,-2.99213 2.50394,-1.51181 4.50394,-3.16535 5.66929,-4.83465 0.992126,-1.84252 1.66929,-4 1.66929,-6.67717l0 -58.1575c24.6614,27.8268 49.1654,48.1575 73.8268,60.9921 24.5039,12.8346 49.1654,19.3386 74.1732,19.3386 29.1654,0 53.8268,-4.99213 73.8268,-14.8346 20,-10 36.1732,-23.3386 48.5039,-39.8268 12.3307,-16.6772 21.1654,-36.1732 26.5039,-58.5039 5.32283,-22.3307 8,-49.1654 8,-80.3307l0 -268.331z"/>
   <glyph unicode="5" horiz-adv-x="506" d="M448 203.339c0,-33.8425 -5.66929,-63.8425 -17.1654,-90.3307 -11.3386,-26.3465 -27.4961,-48.5039 -48.3307,-66.6772 -20.8346,-18 -45.6693,-31.6693 -74.5039,-41.1654 -28.6614,-9.49606 -60.6614,-14.1732 -95.8268,-14.1732 -19.6693,0 -38.1732,1.33858 -55.6693,4.17323 -17.6693,2.66142 -33.3386,6.17323 -47.0079,10.1732 -13.6693,4 -24.8346,8 -33.6693,12 -8.8189,3.82677 -14.3307,6.83465 -16.8189,9.16535 -2.50394,2.33071 -4.17323,4.33071 -5.1811,6.33071 -0.992126,2 -1.82677,4.33071 -2.66142,6.99213 -0.834646,2.83465 -1.33858,6.34646 -1.66929,10.5039 -0.330709,4.17323 -0.488189,9.33858 -0.488189,15.1654 0,5.51181 0.15748,10.3307 0.661417,14.8346 0.503937,4.33071 1.49606,7.84252 2.83465,10.6772 1.16535,2.66142 2.83465,4.8189 4.50394,6 1.82677,1.32283 3.82677,2 6.15748,2 3.33858,0 8.33071,-2 15.1654,-6.17323 6.83465,-4 16,-8.33071 27.4961,-13.1654 11.6693,-4.66142 25.8425,-9.16535 43.0079,-13.3386 17.1654,-4.15748 37.3386,-6.33071 60.8346,-6.33071 21.8268,0 41.8268,2.66142 60,7.82677 18.1575,5.1811 34,13.3386 47.1654,24.5039 13.1654,11.0079 23.4961,24.8346 30.9921,41.6693 7.51181,16.8346 11.1811,37.1654 11.1811,61.3386 0,20.1575 -3.1811,38 -9.51181,53.4961 -6.33071,15.4961 -16.1575,28.3307 -29.3228,38.6614 -13.1654,10.1732 -29.8425,17.8425 -50.1732,23.0079 -20.1732,4.99213 -44.1732,7.49606 -72.1732,7.49606 -20,0 -36.9921,-0.992126 -51.3228,-2.99213 -14.3307,-1.84252 -27.6693,-2.83465 -40.1732,-2.83465 -8.99213,0 -15.4961,2.15748 -19.4961,6.33071 -3.82677,4.15748 -5.82677,12.3307 -5.82677,24.3307l0 257.496c0,10.6772 2.48819,18.6772 7.49606,23.8425 5.16535,5.16535 12.3307,7.82677 21.8268,7.82677l280.173 0c2.50394,0 4.99213,-0.661417 7.49606,-2.17323 2.50394,-1.49606 4.50394,-3.65354 6.17323,-6.66142 1.49606,-2.83465 2.83465,-6.50394 3.65354,-11.1654 0.834646,-4.50394 1.1811,-9.82677 1.1811,-16 0,-11.6693 -1.51181,-20.8346 -4.67717,-27.3386 -3.16535,-6.48819 -7.49606,-9.65354 -13.1654,-9.65354l-226.157 0 0 -177.512c10.9921,1.66929 22.1575,2.67717 33.6535,3.00787 11.5118,0.330709 24.6772,0.503937 39.8425,0.503937 34.8346,0 65.1654,-4.34646 91.3228,-13.0079 26,-8.50394 47.8425,-20.8346 65.1811,-36.5039 17.4961,-15.8268 30.6614,-34.9921 39.4961,-57.4961 8.99213,-22.3307 13.4961,-47.3386 13.4961,-74.6614z"/>
   <glyph unicode="h" horiz-adv-x="525" d="M453.008 12.1732c0,-2.67717 -0.677165,-4.83465 -2,-6.67717 -1.33858,-1.66929 -3.33858,-3.32283 -6.34646,-4.66142 -2.99213,-1.16535 -6.99213,-2.17323 -12.3307,-2.83465 -5.16535,-0.661417 -11.6693,-1.00787 -19.4961,-1.00787 -8.33071,0 -15.0079,0.346457 -20.1732,1.00787 -5.32283,0.661417 -9.32283,1.66929 -12.3307,2.83465 -2.99213,1.33858 -4.99213,2.99213 -6.33071,4.66142 -1.33858,1.84252 -2,4 -2,6.67717l0 257.496c0,24.9921 -2,45.3386 -5.82677,60.5039 -3.84252,15.3228 -9.51181,28.4882 -17.0079,39.6535 -7.49606,11.0079 -16.9921,19.5118 -28.8346,25.3386 -11.8268,5.84252 -25.4961,8.83465 -40.9921,8.83465 -20.1732,0 -40.1732,-7.16535 -60.1732,-21.4961 -20.1575,-14.3307 -41.1654,-35.3386 -63.1654,-63.0079l0 -307.323c0,-2.67717 -0.661417,-4.83465 -2,-6.67717 -1.33858,-1.66929 -3.33858,-3.32283 -6.33071,-4.66142 -3.00787,-1.16535 -7.00787,-2.17323 -12.3307,-2.83465 -5.16535,-0.661417 -11.8425,-1.00787 -20,-1.00787 -8,0 -14.5039,0.346457 -19.6693,1.00787 -5.33858,0.661417 -9.49606,1.66929 -12.5039,2.83465 -3.16535,1.33858 -5.33858,2.99213 -6.50394,4.66142 -1.16535,1.84252 -1.65354,4 -1.65354,6.67717l0 652.157c0,2.67717 0.488189,5.00787 1.65354,6.83465 1.16535,2 3.33858,3.66929 6.50394,5.00787 3.00787,1.16535 7.16535,2.15748 12.5039,2.83465 5.16535,0.661417 11.6693,0.992126 19.6693,0.992126 8.15748,0 14.8346,-0.330709 20,-0.992126 5.32283,-0.677165 9.32283,-1.66929 12.3307,-2.83465 2.99213,-1.33858 4.99213,-3.00787 6.33071,-5.00787 1.33858,-1.82677 2,-4.15748 2,-6.83465l0 -262.661c23.0079,24.5039 46.3307,42.6614 69.6693,54.5039 23.3386,11.8268 46.8346,17.8268 70.5039,17.8268 29.3228,0 53.8268,-4.99213 73.8268,-14.8346 20,-10 36.1732,-23.3386 48.5039,-39.8268 12.3307,-16.6772 21.1654,-36.1732 26.5039,-58.5039 5.32283,-22.3307 8,-49.3386 8,-80.8346l0 -267.827z"/>
   <glyph unicode="2" horiz-adv-x="506" d="M452 36c0,-5.82677 -0.330709,-10.9921 -1.16535,-15.4961 -0.834646,-4.67717 -2,-8.50394 -3.49606,-11.4961 -1.51181,-3.1811 -3.33858,-5.33858 -5.84252,-6.83465 -2.48819,-1.51181 -5.16535,-2.17323 -8,-2.17323l-349.669 0c-4.48819,0 -8.48819,0.503937 -12,1.66929 -3.32283,1.16535 -6.33071,2.99213 -8.66142,5.66929 -2.50394,2.48819 -4.33071,6.33071 -5.49606,11.1654 -1.16535,4.83465 -1.66929,10.8346 -1.66929,18 0,6.50394 0.330709,12.1575 0.834646,16.9921 0.503937,4.83465 1.49606,9.16535 3.16535,13.0079 1.66929,3.66929 3.82677,7.32283 6.33071,11.1654 2.50394,3.66929 5.84252,7.66929 9.84252,11.8268l126.331 130c29.3228,30 52.6614,56.8346 70.3307,80.6772 17.6693,23.6535 31.1654,45.3228 40.8346,64.9921 9.49606,19.4961 15.8268,37.1654 18.8346,53.1654 2.99213,16 4.50394,31.0079 4.50394,45.0079 0,14 -2.34646,27.3228 -7.00787,39.8268 -4.83465,12.5039 -11.4961,23.4961 -20.5039,33.0079 -8.83465,9.49606 -20,16.9921 -33.4961,22.4882 -13.3386,5.51181 -28.8346,8.34646 -46.3307,8.34646 -20.5039,0 -38.8346,-2.83465 -55.1654,-8.34646 -16.1732,-5.49606 -30.5039,-11.6535 -42.8346,-18.1575 -12.1732,-6.50394 -22.5039,-12.6772 -30.6614,-18.1732 -8.17323,-5.49606 -14.3465,-8.33071 -18.3465,-8.33071 -2.33071,0 -4.48819,0.661417 -6.33071,2 -1.82677,1.33858 -3.32283,3.33858 -4.50394,6.33071 -1.16535,2.83465 -2.15748,6.83465 -2.8189,11.6693 -0.677165,5.00787 -1.00787,10.8346 -1.00787,17.6693 0,4.83465 0.173228,8.99213 0.503937,12.6614 0.330709,3.49606 0.834646,6.67717 1.66929,9.33858 0.834646,2.50394 1.82677,4.99213 3.16535,7.33858 1.32283,2.15748 4,4.99213 7.82677,8.48819 4,3.33858 10.6614,8 20.3307,13.8425 9.51181,6 21.6693,11.6693 36.1732,17.3228 14.3307,5.84252 30.3307,10.5039 47.8268,14.5039 17.3386,3.84252 35.6693,5.84252 54.8346,5.84252 30.6772,0 57.4961,-4.34646 80.3307,-13.0079 23.0079,-8.50394 42,-20.3307 57.1654,-35.3386 15.1811,-14.9921 26.5039,-32.3307 34,-52.1575 7.51181,-19.8425 11.1811,-41.0079 11.1811,-63.4961 0,-20.1732 -1.84252,-40.3465 -5.33858,-60.3465 -3.66929,-20 -11.1654,-41.6535 -22.6614,-64.9921 -11.6693,-23.3386 -28.3465,-49.1654 -50.1732,-77.6693 -21.6693,-28.5039 -50.6614,-61.3386 -86.8346,-98.5039l-100 -104.488 275.008 0c2.48819,0 4.99213,-0.677165 7.49606,-2.17323 2.50394,-1.49606 4.66142,-3.66929 6.33071,-6.50394 1.82677,-2.99213 3.16535,-6.66142 4,-10.9921 0.834646,-4.33071 1.16535,-9.51181 1.16535,-15.3386z"/>
   <glyph unicode="e" horiz-adv-x="497" d="M449.008 251.165c0,-12.6614 -3.1811,-21.6693 -9.51181,-27.1654 -6.33071,-5.33858 -13.6693,-8 -21.8268,-8l-288.661 0c0,-24.5039 2.48819,-46.5039 7.32283,-66 4.83465,-19.6693 13.0079,-36.5039 24.5039,-50.5039 11.3386,-14 26.1732,-24.6614 44.3307,-32.1575 18.3307,-7.51181 40.6614,-11.3386 67.0079,-11.3386 20.8346,0 39.4961,1.66929 55.6535,5.16535 16.3465,3.33858 30.5039,7.16535 42.3465,11.3386 11.8268,4.15748 21.6535,8 29.3228,11.3228 7.66929,3.51181 13.3386,5.1811 17.3386,5.1811 2.33071,0 4.33071,-0.503937 6.17323,-1.66929 1.65354,-1.16535 3.16535,-2.83465 4,-5.16535 0.992126,-2.17323 1.82677,-5.33858 2.33071,-9.33858 0.488189,-4.17323 0.661417,-9.00787 0.661417,-14.8346 0,-4.17323 -0.173228,-7.82677 -0.503937,-10.9921 -0.330709,-3.00787 -0.661417,-5.84252 -1.16535,-8.17323 -0.503937,-2.50394 -1.32283,-4.66142 -2.50394,-6.66142 -1.16535,-1.84252 -2.48819,-3.66929 -4.33071,-5.51181 -1.82677,-1.82677 -7.16535,-4.66142 -15.8268,-8.66142 -8.83465,-4.17323 -20.1732,-8 -34.1732,-12 -14,-3.82677 -30.1575,-7.33858 -48.4882,-10.3307 -18.3465,-3.16535 -37.8425,-4.67717 -58.6772,-4.67717 -36.1575,0 -67.6693,5.00787 -94.8346,15.1811 -27.1654,10 -50,24.9921 -68.4882,44.8346 -18.5039,20 -32.5039,44.8189 -41.8425,74.8189 -9.49606,29.8425 -14.1575,64.6772 -14.1575,104.504 0,37.6693 4.8189,71.6693 14.6614,101.843 9.66929,30 23.8268,55.6535 42.1575,76.6614 18.3465,20.9921 40.6772,36.9921 66.6772,48.3307 26,11.1654 55.1654,16.8346 87.3228,16.8346 34.5039,0 63.8425,-5.49606 88,-16.6614 24.3465,-11.0079 44.1732,-26 59.8425,-44.6772 15.4961,-18.6614 26.9921,-40.6614 34.3307,-66 7.33858,-25.1654 11.0079,-52.1575 11.0079,-80.8346l0 -14.6614zm-81.0079 23.8425c1.00787,42.3307 -8.33071,75.6535 -28.1732,99.8268 -19.8268,24.1732 -48.9921,36.1732 -87.8268,36.1732 -20,0 -37.4961,-3.66929 -52.5039,-11.1811 -14.9921,-7.49606 -27.4961,-17.4961 -37.6693,-30 -10.1575,-12.3307 -18,-26.8189 -23.4961,-43.1654 -5.49606,-16.4882 -8.66142,-33.6535 -9.32283,-51.6535l238.992 0z"/>
   <glyph unicode="s" horiz-adv-x="391" d="M351.008 132.173c0,-22.5039 -4.17323,-42.5039 -12.5039,-60.1732 -8.33071,-17.4961 -20,-32.3307 -35.3386,-44.3307 -15.3386,-12 -33.4961,-21.1654 -54.6614,-27.3386 -21.1654,-6.15748 -44.5039,-9.33858 -69.8425,-9.33858 -15.6535,0 -30.4882,1.1811 -44.6614,3.66929 -14.1732,2.33071 -26.8346,5.33858 -38.1732,9.16535 -11.1654,3.66929 -20.6614,7.51181 -28.4882,11.5118 -7.84252,4 -13.5118,7.66929 -17.0079,10.8346 -3.66929,3.16535 -6.33071,7.82677 -7.82677,13.6535 -1.66929,5.84252 -2.50394,13.8425 -2.50394,24 0,6.17323 0.330709,11.3386 1.00787,15.5118 0.661417,4.33071 1.49606,7.66929 2.33071,10.3307 0.992126,2.66142 2.48819,4.50394 4.15748,5.66929 1.84252,1.16535 3.84252,1.66929 6.17323,1.66929 3.49606,0 8.83465,-2.17323 15.8268,-6.67717 7.00787,-4.33071 15.6693,-9.16535 25.8425,-14.3307 10.1575,-5.16535 22.3307,-10 36.3307,-14.3307 14,-4.50394 30,-6.66142 48.1575,-6.66142 13.6693,0 26,1.49606 37.0079,4.48819 11.1654,2.83465 20.6614,7.16535 28.8346,13.0079 8.15748,5.66929 14.3307,12.9921 18.8346,21.8268 4.33071,8.83465 6.50394,19.3386 6.50394,31.4961 0,12.3465 -3.1811,22.8346 -9.51181,31.1811 -6.33071,8.48819 -14.6614,16 -24.9921,22.4882 -10.5039,6.50394 -22.1732,12.3307 -35.1654,17.3386 -13.0079,4.99213 -26.3307,10.3307 -40.1732,15.8268 -13.6693,5.66929 -27.1654,11.8425 -40.3307,18.8346 -13.1654,7.00787 -24.8346,15.5118 -35.3386,25.6693 -10.3307,10.1732 -18.6614,22.1732 -24.9921,36.1732 -6.33071,14 -9.49606,30.6614 -9.49606,50.3307 0,17.1654 3.32283,33.6693 10,49.4961 6.66142,15.8425 16.6614,29.6693 30,41.4961 13.4961,11.8425 30.1575,21.5118 50.1575,28.6772 20,7.16535 43.3386,10.6614 70.1732,10.6614 11.6693,0 23.3228,-0.992126 35.1654,-2.99213 11.6693,-2 22.1575,-4.67717 31.6693,-7.66929 9.49606,-3.00787 17.4961,-6.33071 24.1575,-9.84252 6.67717,-3.66929 11.8425,-6.66142 15.1654,-9.49606 3.51181,-2.66142 5.66929,-4.99213 6.83465,-6.83465 1.16535,-2 2,-4.15748 2.50394,-6.66142 0.503937,-2.33071 0.992126,-5.33858 1.49606,-8.83465 0.503937,-3.66929 0.677165,-8 0.677165,-13.1654 0,-5.49606 -0.173228,-10.3307 -0.677165,-14.3307 -0.503937,-4 -1.32283,-7.33858 -2.50394,-9.84252 -1.16535,-2.66142 -2.48819,-4.50394 -4.15748,-5.66929 -1.66929,-1.16535 -3.49606,-1.65354 -5.33858,-1.65354 -2.99213,0 -7.16535,1.82677 -12.8346,5.49606 -5.49606,3.49606 -12.6614,7.32283 -21.4961,11.4961 -8.83465,4.17323 -19.1654,8 -30.9921,11.4961 -11.8425,3.66929 -25.5118,5.51181 -40.8346,5.51181 -13.6693,0 -25.8425,-1.51181 -36.1732,-4.67717 -10.5039,-2.99213 -18.9921,-7.32283 -25.6693,-12.9921 -6.66142,-5.66929 -11.8268,-12.3307 -15.1654,-20.1732 -3.49606,-7.66929 -5.16535,-16.1575 -5.16535,-25.1654 0,-12.6614 3.33858,-23.3386 9.82677,-32 6.50394,-8.66142 14.8346,-16.1732 25.3386,-22.6614 10.3307,-6.50394 22.3307,-12.3307 35.6693,-17.6693 13.3386,-5.16535 26.8346,-10.5039 40.6614,-16 13.8425,-5.66929 27.5118,-11.8425 41.0079,-18.6614 13.4961,-6.83465 25.4961,-15.1811 35.8268,-24.8346 10.5039,-9.84252 18.8346,-21.5118 25.1654,-35.1654 6.33071,-13.6693 9.51181,-30 9.51181,-48.8346z"/>
   <glyph unicode="p" horiz-adv-x="525" d="M479.008 239.165c0,-38.5039 -4.17323,-72.9921 -12.5039,-103.669 -8.17323,-30.4882 -20.3307,-56.4882 -36.5039,-77.8268 -16,-21.3386 -36,-37.8425 -59.6693,-49.3386 -23.6693,-11.4961 -50.8346,-17.3386 -81.3228,-17.3386 -13.0079,0 -25.0079,1.33858 -36,3.84252 -11.1811,2.66142 -21.8425,6.66142 -32.5039,12.3307 -10.5039,5.49606 -21.0079,12.5039 -31.3386,21.0079 -10.5039,8.33071 -21.4961,18.3307 -33.1654,29.6535l0 -220.157c0,-2.67717 -0.661417,-4.83465 -2,-6.83465 -1.33858,-2 -3.33858,-3.66929 -6.33071,-5.00787 -3.00787,-1.16535 -7.00787,-2.15748 -12.3307,-2.83465 -5.16535,-0.661417 -11.8425,-0.992126 -20,-0.992126 -8,0 -14.5039,0.330709 -19.6693,0.992126 -5.33858,0.677165 -9.49606,1.66929 -12.5039,2.83465 -3.16535,1.33858 -5.33858,3.00787 -6.50394,5.00787 -1.16535,2 -1.65354,4.15748 -1.65354,6.83465l0 614.157c0,3.00787 0.488189,5.33858 1.49606,7.1811 0.992126,1.65354 2.99213,3.32283 5.82677,4.48819 3.00787,1.33858 6.67717,2.33071 11.3386,2.83465 4.50394,0.503937 10.1575,0.677165 16.6614,0.677165 6.83465,0 12.5039,-0.173228 17.0079,-0.677165 4.33071,-0.503937 8,-1.49606 10.9921,-2.66142 3.00787,-1.33858 5.00787,-3.00787 6.17323,-4.66142 1.16535,-1.84252 1.66929,-4.17323 1.66929,-7.1811l0 -58.8189c13.3228,13.6535 26.1575,25.4961 38.4882,35.6535 12.3465,10 24.8346,18.3465 37.3386,25.0079 12.5039,6.66142 25.3386,11.8268 38.5039,15.1654 13.1654,3.49606 26.9921,5.16535 41.6693,5.16535 31.8268,0 58.8346,-6.17323 81.3228,-18.5039 22.3307,-12.4882 40.6772,-29.3228 54.8346,-50.8346 14.1732,-21.4961 24.5039,-46.4882 31.0079,-74.9921 6.48819,-28.5039 9.66929,-58.6614 9.66929,-90.5039zm-84 -9.33858c0,22.5039 -1.66929,44.3465 -5.1811,65.3386 -3.32283,21.0079 -9.32283,39.6693 -17.4961,56 -8.33071,16.3307 -19.4961,29.3386 -33.4961,39.1654 -14,9.84252 -31.4961,14.6772 -52.3307,14.6772 -10.5039,0 -20.6772,-1.51181 -30.8346,-4.67717 -10,-3.16535 -20.3307,-8 -30.8346,-14.6614 -10.3307,-6.66142 -21.3386,-15.4961 -32.6614,-26.5039 -11.3386,-10.9921 -23.5118,-24.5039 -36.1732,-40.5039l0 -174.835c22.1732,-27.1654 43.1654,-47.8268 63.0079,-62.3307 20,-14.3307 40.8189,-21.4961 62.6614,-21.4961 20.1575,0 37.4961,4.83465 52,14.6614 14.5039,9.84252 26.1575,22.8346 35.1654,39.1654 8.99213,16.3465 15.4961,34.5039 19.8268,54.8346 4.17323,20.1732 6.34646,40.6772 6.34646,61.1654z"/>
   <glyph unicode="4" horiz-adv-x="506" d="M477.827 179.496c0,-10.6614 -1.65354,-19.1654 -4.8189,-25.3228 -3.33858,-6.17323 -7.84252,-9.16535 -13.6693,-9.16535l-71.3386 0 0 -132.835c0,-2.67717 -0.661417,-4.83465 -2,-6.67717 -1.33858,-1.66929 -3.66929,-3.32283 -6.99213,-4.66142 -3.33858,-1.16535 -7.84252,-2.17323 -13.1811,-2.83465 -5.32283,-0.661417 -12.1575,-1.00787 -20.4882,-1.00787 -8.17323,0 -14.8346,0.346457 -20.1732,1.00787 -5.33858,0.661417 -9.66929,1.66929 -12.8346,2.83465 -3.16535,1.33858 -5.32283,2.99213 -6.50394,4.66142 -1.16535,1.84252 -1.82677,4 -1.82677,6.67717l0 132.835 -258.661 0c-4,0 -7.16535,0.488189 -9.66929,1.49606 -2.66142,0.992126 -5.00787,2.66142 -7.16535,5.32283 -2,2.50394 -3.49606,6.34646 -4.33071,11.1811 -0.834646,4.8189 -1.16535,11.1654 -1.16535,18.9921 0,6.17323 0.15748,11.6693 0.488189,16.5039 0.330709,4.83465 1.00787,9.32283 2,13.3228 0.834646,4.17323 2.17323,8 3.84252,11.6693 1.49606,3.84252 3.49606,7.84252 5.82677,12l225.339 384.331c1.66929,2.67717 4.15748,4.83465 7.32283,6.83465 3.1811,2 7.1811,3.66929 12.1732,4.83465 5.00787,1.33858 11.1654,2.33071 18.3307,2.83465 7.33858,0.503937 16,0.677165 26,0.677165 10.8346,0 20.5039,-0.346457 28.5039,-1.1811 8.17323,-0.818898 14.8346,-2 19.6693,-3.16535 4.99213,-1.32283 8.83465,-3.16535 11.4961,-5.16535 2.66142,-2.15748 4,-4.66142 4,-7.66929l0 -403.827 71.3386 0c5.49606,0 10,-2.83465 13.3228,-8.50394 3.51181,-5.66929 5.16535,-14.3307 5.16535,-26zm-173.827 381.669l-0.992126 0 -203.339 -347.165 204.331 0 0 347.165z"/>
   <glyph unicode="#" horiz-adv-x="498" d="M480 432.835c0,-5.66929 -0.503937,-10.3307 -1.16535,-14.1732 -0.834646,-4 -2,-7.16535 -3.49606,-9.65354 -1.51181,-2.34646 -3.16535,-4.17323 -5.33858,-5.33858 -2.17323,-1.16535 -4.33071,-1.66929 -6.66142,-1.66929l-63.8425 0 -19.6693 -162 56.6772 0c4.83465,0 8.83465,-2.50394 12,-7.33858 2.99213,-4.83465 4.66142,-12.8346 4.66142,-23.8268 0,-5.66929 -0.503937,-10.3307 -1.49606,-14.1732 -1.00787,-4 -2.17323,-7.16535 -3.33858,-9.65354 -1.32283,-2.34646 -3.16535,-4.17323 -5.16535,-5.33858 -2.15748,-1.16535 -4.33071,-1.66929 -6.66142,-1.66929l-65.0079 0 -20.4882 -167.339c-0.173228,-2.33071 -0.834646,-4.33071 -1.84252,-6.15748 -0.992126,-1.66929 -2.83465,-3.16535 -5.33858,-4.33071 -2.66142,-1.1811 -6.33071,-2 -10.8189,-2.50394 -4.50394,-0.503937 -10.5039,-0.677165 -18,-0.677165 -7.51181,0 -13.6693,0.173228 -18.6772,0.677165 -4.83465,0.503937 -8.50394,1.32283 -11.1654,2.50394 -2.66142,1.16535 -4.33071,2.66142 -5.33858,4.33071 -0.992126,1.82677 -1.32283,3.82677 -0.992126,6.15748l20.5039 167.339 -135.843 0 -20.4882 -167.339c-0.503937,-2.33071 -1.33858,-4.33071 -2.17323,-6.15748 -0.834646,-1.66929 -2.33071,-3.16535 -4.83465,-4.33071 -2.50394,-1.1811 -6,-2 -10.5039,-2.50394 -4.48819,-0.503937 -10.6614,-0.677165 -18,-0.677165 -7.82677,0 -14.1575,0.173228 -19.1654,0.677165 -4.83465,0.503937 -8.50394,1.32283 -11.1654,2.50394 -2.66142,1.16535 -4.33071,2.66142 -5.33858,4.33071 -0.992126,1.82677 -1.32283,3.82677 -0.992126,6.15748l20 167.339 -56.6614 0c-4.83465,0 -8.83465,2.33071 -12,7.00787 -3.00787,4.8189 -4.67717,12.6614 -4.67717,23.8268 0,5.49606 0.503937,10.1732 1.51181,14 0.992126,4 2.15748,7.16535 3.49606,9.66929 1.32283,2.33071 2.83465,4.15748 4.83465,5.49606 2,1.33858 4.33071,2 6.83465,2l65.4961 0 20 162 -59.1654 0c-4.83465,0 -8.83465,2.50394 -11.8425,7.33858 -3.16535,4.83465 -4.66142,12.4882 -4.66142,22.9921 0,11.3386 1.49606,19.4961 4.66142,24.3307 3.00787,4.83465 7.00787,7.33858 11.8425,7.33858l66.5039 0 20 156.835c0.330709,2.33071 0.992126,4.33071 2.15748,6.17323 1.16535,1.65354 3.16535,3.16535 5.84252,4.33071 2.8189,1.16535 6.66142,2 11.4961,2.66142 4.83465,0.661417 10.9921,1.00787 18.5039,1.00787 7.82677,0 14,-0.346457 18.6614,-1.00787 4.50394,-0.661417 8,-1.49606 10.5039,-2.66142 2.33071,-1.16535 4,-2.67717 4.66142,-4.33071 0.503937,-1.84252 0.834646,-3.66929 0.834646,-5.66929l-20.5039 -157.339 135.843 0 18.9921 156.835c0.330709,2.33071 1.16535,4.33071 2.50394,6.17323 1.32283,1.65354 3.16535,3.16535 5.82677,4.33071 2.67717,1.16535 6.33071,2 11.1654,2.66142 5.00787,0.661417 11.3386,1.00787 19.0079,1.00787 7.49606,0 13.6693,-0.346457 18.3307,-1.00787 4.83465,-0.661417 8.33071,-1.49606 10.5039,-2.66142 2.33071,-1.16535 3.82677,-2.67717 4.66142,-4.33071 0.834646,-1.84252 1.16535,-3.66929 0.834646,-5.66929l-19.6693 -157.339 56.1732 0c4.99213,0 8.99213,-2.50394 12,-7.49606 3.16535,-5.16535 4.66142,-13.0079 4.66142,-23.6693zm-288.661 -30.8346l-19.5118 -162 135.339 0 20.5039 162 -136.331 0z"/>
   <glyph unicode="g" horiz-adv-x="470" d="M442 431.339c0,-11.5118 -1.49606,-19.6693 -4.66142,-24.8346 -3.00787,-5.00787 -7.00787,-7.49606 -12,-7.49606l-63.1654 0c11.4961,-11.6693 19.4961,-24.5039 24,-38.5039 4.48819,-14 6.83465,-28.6772 6.83465,-43.8425 0,-25.3228 -4,-47.8268 -12.1732,-67.3228 -8.17323,-19.5118 -19.8268,-36 -35.0079,-49.5118 -15.1654,-13.6535 -33.1654,-24 -54,-31.1654 -20.8189,-7.16535 -44,-10.6614 -69.3228,-10.6614 -17.8425,0 -35.0079,2.33071 -51.0079,7.00787 -16.1575,4.8189 -28.6614,10.6614 -37.4961,17.8268 -5.49606,-5.82677 -10,-12.5039 -13.6693,-20 -3.49606,-7.66929 -5.32283,-16.3307 -5.32283,-26 0,-11.4961 5.32283,-21.0079 15.8268,-28.5039 10.5039,-7.66929 24.6614,-11.6693 42.1732,-12.3307l114.488 -4.83465c21.6693,-0.661417 41.6693,-3.66929 59.8425,-8.99213 18.1575,-5.51181 34,-13.0079 47.3228,-23.0079 13.3386,-9.82677 23.6693,-22.1575 31.1654,-36.5039 7.51181,-14.4882 11.1811,-31.3228 11.1811,-50.4882 0,-20.1732 -4.17323,-39.3386 -12.6772,-57.5118 -8.50394,-18.1575 -21.3228,-34.1575 -38.8346,-48 -17.3228,-13.8268 -39.6693,-24.8346 -66.6614,-32.6614 -27.0079,-8 -58.8346,-12 -95.6693,-12 -35.4961,0 -65.6693,2.99213 -90.5039,8.99213 -24.8346,6 -45.3228,14.3465 -61.3228,24.6772 -15.8425,10.5039 -27.5118,22.8346 -34.6772,37.3228 -7.16535,14.5039 -10.6614,30.3465 -10.6614,47.1811 0,10.8189 1.33858,21.1654 3.82677,31.3228 2.67717,10 6.67717,19.6693 12,28.8346 5.33858,9.00787 12,17.8425 20,26 8,8.33071 17.1811,16.5039 27.6693,24.6772 -15.8268,8.15748 -27.4961,18.4882 -35.1654,30.8189 -7.49606,12.3465 -11.3228,25.6693 -11.3228,40 0,19.8425 4,37.6693 12,53.3386 8,15.4961 17.8268,29.4961 29.6535,42 -10,12 -18,25.4961 -23.8268,40.6614 -5.82677,15.1811 -8.83465,33.5118 -8.83465,55.0079 0,24.9921 4.17323,47.4961 12.6614,67.3386 8.50394,19.8268 20.1732,36.6614 35.1654,50.3307 15.0079,13.6693 33.0079,24.1575 54,31.4961 21.0079,7.33858 44,11.0079 68.6772,11.0079 13.4961,0 25.8268,-0.834646 37.4961,-2.34646 11.4961,-1.65354 22.3307,-3.82677 32.5039,-6.66142l132.835 0c5.66929,0 9.66929,-2.66142 12.4882,-8 2.83465,-5.49606 4.17323,-13.6693 4.17323,-24.6614zm-126 -115.339c0,29.8268 -8.17323,53.1654 -24.6614,69.8268 -16.5039,16.8346 -39.8425,25.1811 -70,25.1811 -15.6693,0 -29.3386,-2.67717 -40.8346,-7.84252 -11.4961,-5.16535 -21.1654,-12.3307 -28.8346,-21.3386 -7.66929,-9.16535 -13.3386,-19.6535 -17.0079,-31.4961 -3.82677,-11.8268 -5.65354,-24.3307 -5.65354,-37.3228 0,-28.8346 8.15748,-51.5118 24.6614,-68.1732 16.5039,-16.5039 39.4961,-24.8346 69.1654,-24.8346 15.8268,0 29.6693,2.50394 41.4961,7.49606 11.6693,5.16535 21.3386,12 29.0079,21.0079 7.66929,8.99213 13.3228,19.3228 16.9921,30.9921 3.84252,11.6693 5.66929,23.8425 5.66929,36.5039zm40 -347.827c0,18.8189 -7.66929,33.3228 -23.1654,43.6535 -15.3386,10.1732 -36.3307,15.6693 -62.6614,16.3465l-113.512 3.82677c-10.3307,-8.17323 -18.9921,-15.8268 -25.6535,-23.1654 -6.67717,-7.33858 -11.8425,-14.1732 -15.8425,-20.8346 -3.82677,-6.66142 -6.50394,-13.3386 -8,-19.8268 -1.49606,-6.50394 -2.15748,-13.1811 -2.15748,-19.8425 0,-21.1654 10.6614,-37.1654 32.1575,-48 21.4961,-10.8346 51.3386,-16.3307 89.6693,-16.3307 24.3307,0 44.8346,2.33071 61.1654,6.99213 16.5039,4.83465 29.6693,11.0079 39.6693,18.8346 10.1575,7.84252 17.3386,16.6772 21.8268,26.6772 4.33071,10.1575 6.50394,20.6614 6.50394,31.6693z"/>
   <glyph unicode="E" horiz-adv-x="488" d="M436 34.8346c0,-6 -0.330709,-11.1654 -0.992126,-15.4961 -0.677165,-4.33071 -1.84252,-8 -3.33858,-11.0079 -1.66929,-2.99213 -3.49606,-4.99213 -5.66929,-6.33071 -2.17323,-1.33858 -4.50394,-2 -7.16535,-2l-303.496 0c-7.51181,0 -14.6772,2.50394 -21.3386,7.49606 -6.66142,5.16535 -10,14 -10,26.6772l0 563.654c0,12.6772 3.33858,21.5118 10,26.6772 6.66142,4.99213 13.8268,7.49606 21.3386,7.49606l300 0c2.66142,0 4.99213,-0.661417 7.16535,-2 2.15748,-1.33858 3.82677,-3.33858 5.16535,-6.33071 1.16535,-3.00787 2.33071,-6.66142 3.16535,-11.0079 0.834646,-4.33071 1.16535,-9.82677 1.16535,-16.3307 0,-6 -0.330709,-10.9921 -1.16535,-15.4961 -0.834646,-4.33071 -2,-8 -3.16535,-10.8346 -1.33858,-2.66142 -3.16535,-4.66142 -5.16535,-6 -2.17323,-1.33858 -4.50394,-2 -7.16535,-2l-247.339 0 0 -198 212.331 0c2.67717,0 5.00787,-0.661417 7.16535,-2.17323 2,-1.49606 3.84252,-3.49606 5.33858,-6.15748 1.49606,-2.66142 2.50394,-6.17323 3.16535,-10.6614 0.661417,-4.67717 1.00787,-10 1.00787,-16.1732 0,-6 -0.346457,-11.0079 -1.00787,-15.1654 -0.661417,-4.33071 -1.66929,-7.66929 -3.16535,-10.3307 -1.49606,-2.67717 -3.33858,-4.50394 -5.33858,-5.66929 -2.15748,-1.16535 -4.48819,-1.66929 -7.16535,-1.66929l-212.331 0 0 -226 250.835 0c2.66142,0 4.99213,-0.661417 7.16535,-2 2.17323,-1.33858 4,-3.33858 5.66929,-6 1.49606,-2.83465 2.66142,-6.50394 3.33858,-10.8346 0.661417,-4.33071 0.992126,-9.82677 0.992126,-16.3307z"/>
   <glyph unicode="1" horiz-adv-x="506" d="M453.008 33.0079c0,-6.17323 -0.503937,-11.3386 -1.51181,-15.5118 -0.992126,-4.15748 -2.15748,-7.66929 -3.82677,-10.1575 -1.66929,-2.67717 -3.49606,-4.50394 -5.66929,-5.66929 -2.17323,-1.16535 -4.33071,-1.66929 -6.50394,-1.66929l-330 0c-2.15748,0 -4.33071,0.503937 -6.33071,1.66929 -1.82677,1.16535 -3.82677,2.99213 -5.49606,5.66929 -1.84252,2.48819 -3.16535,6 -4.17323,10.1575 -0.992126,4.17323 -1.49606,9.33858 -1.49606,15.5118 0,5.82677 0.503937,10.8189 1.49606,14.9921 1.00787,4.33071 2.17323,7.82677 3.66929,10.5039 1.33858,2.83465 3.16535,4.83465 5.33858,6.33071 2.15748,1.49606 4.50394,2.17323 6.99213,2.17323l131.512 0 0 480.992 -122.173 -72.9921c-6.17323,-3.1811 -11.1654,-5.1811 -15.0079,-5.84252 -3.65354,-0.661417 -6.66142,0 -8.99213,2.17323 -2.33071,2.15748 -3.82677,5.66929 -4.66142,10.4882 -0.834646,4.83465 -1.16535,11.0079 -1.16535,18.5039 0,5.49606 0.15748,10.3307 0.661417,14.1732 0.503937,4 1.33858,7.16535 2.33071,9.82677 1.00787,2.50394 2.33071,4.83465 4.17323,6.83465 1.65354,1.84252 4,3.84252 6.99213,5.84252l145.669 93.1654c1.33858,0.992126 2.83465,1.82677 4.83465,2.48819 2,0.503937 4.50394,1.16535 7.33858,1.84252 2.99213,0.661417 6.33071,1.16535 10.3307,1.32283 3.82677,0.173228 8.66142,0.173228 14.6614,0.173228 7.66929,0 14.3307,-0.330709 19.4961,-0.992126 5.16535,-0.677165 9.16535,-1.51181 12.1732,-2.67717 2.99213,-1.16535 4.83465,-2.66142 5.82677,-4.33071 1.00787,-1.82677 1.51181,-3.66929 1.51181,-5.66929l0 -555.323 114.331 0c2.66142,0 5.16535,-0.677165 7.32283,-2.17323 2.34646,-1.49606 4.17323,-3.49606 5.66929,-6.33071 1.49606,-2.67717 2.67717,-6.17323 3.49606,-10.5039 0.834646,-4.17323 1.1811,-9.16535 1.1811,-14.9921z"/>
   <glyph unicode="B" horiz-adv-x="544" d="M501.008 181.165c0,-19.8268 -2.50394,-38.1575 -7.51181,-54.8346 -5.16535,-16.8346 -12.1575,-31.8268 -21.3228,-45.3228 -9.16535,-13.3386 -20.1732,-25.0079 -33.0079,-35.1811 -12.8346,-10 -27.3386,-18.4882 -43.4961,-25.3228 -16.1732,-6.83465 -33.4961,-12 -51.8425,-15.3386 -18.4882,-3.49606 -39.4961,-5.16535 -63.3228,-5.16535l-165.165 0c-7.51181,0 -14.6772,2.50394 -21.3386,7.49606 -6.66142,5.16535 -10,14 -10,26.6772l0 563.654c0,12.6772 3.33858,21.5118 10,26.6772 6.66142,4.99213 13.8268,7.49606 21.3386,7.49606l143.669 0c37.8268,0 68.8189,-3.49606 92.9921,-10.6614 24,-7.16535 44.1732,-17.6693 60.3307,-31.3386 16.1732,-13.6693 28.3307,-30.5039 36.5039,-50.3307 8.17323,-19.8425 12.1732,-42.3307 12.1732,-67.3386 0,-14.9921 -1.84252,-29.3228 -5.33858,-42.9921 -3.66929,-13.6693 -9.00787,-26.3307 -16,-37.8425 -7.00787,-11.6693 -15.6693,-22 -26.3307,-30.9921 -10.6772,-9.16535 -22.8346,-16.6772 -36.5039,-22.5039 17.3386,-3.33858 33.4961,-9.16535 48.5039,-17.8268 14.8346,-8.67717 28,-19.6693 39.3228,-33.0079 11.1654,-13.3386 20,-28.9921 26.5039,-46.8346 6.50394,-18 9.84252,-37.6693 9.84252,-59.1654zm-126 283.008c0,15.3228 -2.17323,29.1654 -6.34646,41.6535 -4.15748,12.3465 -10.8346,22.8346 -20,31.5118 -9.16535,8.66142 -20.9921,15.1654 -35.6535,19.8268 -14.6772,4.50394 -34,6.83465 -58.1732,6.83465l-86.8346 0 0 -204.992 95.6693 0c21.8268,0 39.3386,2.8189 52.8346,8.48819 13.3228,5.84252 24.3307,13.5118 33.1654,23.0079 8.66142,9.66929 15.1654,20.9921 19.1654,33.8268 4.17323,12.8346 6.17323,26.1732 6.17323,39.8425zm38 -288c0,18.8346 -3.00787,35.4961 -9.00787,49.8268 -6,14.3307 -14.8346,26.3307 -26.3307,36.1732 -11.6693,9.82677 -26,17.1654 -43.4961,22.3307 -17.3386,4.99213 -39.3386,7.49606 -65.6693,7.49606l-100.504 0 0 -222.992 122 0c19.1654,0 36,2.33071 50.3307,6.8189 14.3307,4.50394 26.8346,11.3386 37.8425,20.3465 10.8346,8.99213 19.3228,20.1575 25.4961,33.4961 6.15748,13.3386 9.33858,28.8346 9.33858,46.5039z"/>
   <glyph unicode="S" horiz-adv-x="459" d="M424 177.339c0,-29.5118 -5.49606,-55.8425 -16.3307,-79.0079 -11.0079,-22.9921 -26.1732,-42.6614 -45.4961,-58.8346 -19.3386,-16 -42.1732,-28.1575 -68.3465,-36.3307 -26.3307,-8.17323 -54.4882,-12.1732 -84.8189,-12.1732 -21.1811,0 -40.8346,1.84252 -58.8346,5.33858 -18.1732,3.66929 -34.3465,8.17323 -48.5039,13.3386 -14.1732,5.16535 -26,10.6614 -35.6693,16.1575 -9.49606,5.66929 -16.3307,10.3465 -20,14.3465 -3.82677,3.82677 -6.50394,8.83465 -8.33071,14.8346 -1.84252,6 -2.66142,14 -2.66142,24 0,7.16535 0.330709,13.1654 0.992126,17.8268 0.661417,4.66142 1.66929,8.50394 2.83465,11.3386 1.33858,2.99213 2.99213,4.99213 4.99213,6.15748 2,1.16535 4.17323,1.66929 6.83465,1.66929 4.50394,0 11.0079,-2.83465 19.3386,-8.33071 8.17323,-5.49606 18.8346,-11.4961 32,-18 13.0079,-6.33071 28.6614,-12.5039 47.1654,-18.1732 18.3307,-5.66929 39.6693,-8.48819 63.6693,-8.48819 18.3307,0 34.9921,2.48819 50.1732,7.32283 15.1654,4.83465 28.1575,11.6693 38.9921,20.6772 11.0079,8.8189 19.3386,19.8268 25.1654,32.8189 5.84252,13.0079 8.83465,27.8425 8.83465,44.3465 0,17.8268 -4,33.1654 -12.1732,45.8268 -8.15748,12.6614 -18.8189,23.8268 -32.1575,33.4961 -13.4961,9.51181 -28.6614,18.3307 -45.6693,26.3307 -17.1654,8 -34.6614,16 -52.5039,24.3465 -17.8268,8.33071 -35.3228,17.4961 -52.1575,27.6535 -17.0079,10 -32.1732,21.8425 -45.5118,35.5118 -13.3228,13.6693 -24.1575,29.6693 -32.3307,48.1575 -8.33071,18.3307 -12.4882,40.3307 -12.4882,66 0,26.5039 4.8189,50 14.3307,70.6772 9.66929,20.4882 22.9921,37.8268 40,51.8268 17.1654,14 37.4961,24.6614 60.9921,32 23.6693,7.33858 49.0079,11.0079 76.3307,11.0079 14,0 28,-1.1811 42.1732,-3.66929 14.1732,-2.50394 27.4961,-5.66929 40,-9.84252 12.5039,-4 23.6693,-8.66142 33.4961,-13.6693 9.66929,-4.99213 16.1732,-9.16535 19.1654,-12.1575 3.16535,-3.16535 5.16535,-5.49606 6.17323,-7.33858 0.992126,-1.82677 1.66929,-4.15748 2.33071,-6.83465 0.661417,-2.83465 1.16535,-6.15748 1.49606,-10.1575 0.330709,-3.84252 0.503937,-8.83465 0.503937,-15.1654 0,-5.84252 -0.173228,-11.0079 -0.661417,-15.6693 -0.503937,-4.50394 -1.33858,-8.33071 -2.33071,-11.4961 -0.834646,-3.00787 -2.34646,-5.33858 -4,-6.83465 -1.84252,-1.51181 -3.84252,-2.17323 -6.17323,-2.17323 -3.66929,0 -9.16535,2.33071 -16.8346,6.83465 -7.66929,4.66142 -16.9921,9.66929 -28.1732,15.4961 -10.9921,5.66929 -24.1575,10.8346 -39.3228,15.4961 -15.0079,4.83465 -32,7.1811 -51.0079,7.1811 -17.4961,0 -32.8346,-2.34646 -45.8268,-7.00787 -13.0079,-4.83465 -23.8425,-10.9921 -32.3307,-18.8346 -8.33071,-7.82677 -14.6772,-16.9921 -19.0079,-27.6693 -4.15748,-10.8346 -6.33071,-22.1575 -6.33071,-34.1575 0,-17.5118 4,-32.6772 12.1732,-45.3386 8.15748,-12.6614 18.9921,-23.8268 32.4882,-33.6693 13.6693,-9.82677 29.0079,-18.6614 46.3465,-26.8346 17.1654,-8.15748 34.8189,-16.3307 52.8189,-24.6614 17.8425,-8.33071 35.5118,-17.3386 52.6772,-27.3386 17.3228,-9.82677 32.6614,-21.6693 46.3307,-35.1654 13.4961,-13.4961 24.3307,-29.3228 32.6614,-47.8268 8.33071,-18.3307 12.5039,-40 12.5039,-65.1654z"/>
   <glyph unicode="d" horiz-adv-x="525" d="M451.008 12.1732c0,-2.67717 -0.503937,-4.83465 -1.66929,-6.83465 -1.16535,-2 -3.16535,-3.51181 -5.84252,-4.67717 -2.83465,-1.16535 -6.48819,-2 -10.9921,-2.66142 -4.67717,-0.661417 -10.1732,-1.00787 -16.6772,-1.00787 -6.8189,0 -12.4882,0.346457 -16.9921,1.00787 -4.66142,0.661417 -8.33071,1.49606 -11.3386,2.66142 -2.83465,1.16535 -4.99213,2.67717 -6.33071,4.67717 -1.16535,2 -1.82677,4.33071 -1.82677,6.83465l0 58.4882c-23.1654,-25.1654 -47.1654,-44.6614 -72,-58.6614 -25.0079,-14 -52.1732,-21.0079 -81.8425,-21.0079 -32.1575,0 -59.6693,6.34646 -82.3307,18.8346 -22.8346,12.5039 -41.3386,29.5118 -55.4961,50.8346 -14,21.3386 -24.3307,46.3465 -30.8346,75.1654 -6.50394,28.8346 -9.82677,59.1811 -9.82677,91.0079 0,37.8268 4,72 12.1575,102.331 8.17323,30.5039 20.1732,56.5039 36.1732,78 15.8268,21.4961 35.6693,38 59.3228,49.4961 23.5118,11.5118 50.6772,17.3386 81.6693,17.3386 25.6693,0 49.1654,-5.66929 70.5039,-16.8346 21.3386,-11.3386 42.3307,-27.8268 63.1654,-49.6693l0 254.835c0,2.33071 0.503937,4.50394 1.66929,6.67717 1.16535,2.15748 3.33858,3.65354 6.66142,4.8189 3.16535,1.1811 7.33858,2.17323 12.3307,3.00787 5.16535,0.834646 11.5118,1.16535 19.3386,1.16535 8.17323,0 14.8346,-0.330709 20,-1.16535 5.16535,-0.834646 9.33858,-1.82677 12.1732,-3.00787 2.99213,-1.16535 5.16535,-2.66142 6.66142,-4.8189 1.49606,-2.17323 2.17323,-4.34646 2.17323,-6.67717l0 -650.157zm-81.0079 309.496c-21.6693,27.1654 -42.6614,47.8268 -62.9921,62 -20.3465,14.1575 -41.5118,21.3386 -63.5118,21.3386 -20.4882,0 -37.8268,-4.83465 -52.1575,-14.6772 -14.3307,-9.82677 -25.8425,-22.6614 -34.8346,-38.6614 -8.83465,-15.8425 -15.3386,-34 -19.3386,-54.1732 -4.15748,-20.1575 -6.15748,-40.6614 -6.15748,-61.4961 0,-22.1732 1.65354,-43.8268 5.16535,-64.9921 3.32283,-21.1811 9.32283,-40 17.6535,-56.5039 8.50394,-16.5039 19.6693,-29.6693 33.6693,-39.6693 13.8425,-9.82677 31.5118,-14.8346 52.5039,-14.8346 10.6614,0 21.0079,1.49606 31.0079,4.33071 9.82677,3.00787 20,7.84252 30.3307,14.6772 10.3307,6.8189 21.3228,15.6535 32.6614,26.6614 11.3386,10.8346 23.3386,24.1575 36,40.1575l0 175.843z"/>
   <glyph unicode="a" horiz-adv-x="479" d="M406 11.6693c0,-3.84252 -1.33858,-6.83465 -3.82677,-8.83465 -2.67717,-2 -6.17323,-3.33858 -10.8346,-4.33071 -4.50394,-1.00787 -11.1654,-1.51181 -20,-1.51181 -8.33071,0 -15.1654,0.503937 -20.1732,1.51181 -4.99213,0.992126 -8.66142,2.33071 -10.9921,4.33071 -2.34646,2 -3.51181,4.83465 -3.51181,8.83465l0 44c-19.1654,-20.5039 -40.4882,-36.5039 -64.1575,-47.8425 -23.6693,-11.1654 -48.6772,-16.8346 -75.0079,-16.8346 -23.1654,0 -44.1575,3.00787 -62.8346,9.00787 -18.6614,6 -34.6614,14.8346 -47.8268,26.1732 -13.1654,11.3228 -23.4961,25.4961 -30.8346,42 -7.33858,16.6614 -10.9921,35.4961 -10.9921,56.6614 0,24.8346 4.99213,46.3307 15.1654,64.5039 10,18.3307 24.4882,33.4961 43.4961,45.4961 18.8346,12 42,21.1654 69.3386,27.1654 27.3228,6 58.1575,9.00787 92.3307,9.00787l60.6614 0 0 34.3307c0,16.8346 -1.82677,31.8268 -5.33858,44.9921 -3.65354,13.0079 -9.32283,23.8425 -17.3228,32.5039 -8,8.66142 -18.3307,15.1654 -31.0079,19.4961 -12.6614,4.50394 -28.3307,6.67717 -46.8346,6.67717 -19.8268,0 -37.6693,-2.34646 -53.3228,-7.1811 -15.8425,-4.8189 -29.6693,-10 -41.5118,-15.8268 -11.8268,-5.82677 -21.8268,-10.9921 -29.8268,-15.8268 -7.82677,-4.83465 -13.8268,-7.16535 -17.6693,-7.16535 -2.66142,0 -4.99213,0.661417 -6.83465,2 -2,1.16535 -3.66929,3.16535 -5.16535,5.82677 -1.49606,2.50394 -2.50394,5.82677 -3.16535,9.82677 -0.661417,4.17323 -0.992126,8.50394 -0.992126,13.5118 0,8 0.488189,14.4882 1.65354,19.1654 1.16535,4.66142 4,9.16535 8.34646,13.3228 4.33071,4.17323 12,9.16535 22.6614,15.0079 10.6614,5.66929 23.1654,10.9921 37.1654,15.8268 13.8268,4.67717 29.1654,8.67717 45.8268,11.8425 16.5039,3.16535 33.3386,4.66142 50.1732,4.66142 31.4961,0 58.3307,-3.49606 80.5039,-10.6614 22.1575,-7.16535 40,-17.8425 53.6693,-31.6693 13.6535,-13.8425 23.4961,-31.0079 29.6535,-51.4961 6.17323,-20.5039 9.33858,-44.5039 9.33858,-71.8425l0 -296.661zm-80 201.339l-68.8346 0c-22,0 -41.1654,-1.84252 -57.4961,-5.66929 -16.1732,-3.66929 -29.6693,-9.33858 -40.5039,-16.6772 -10.6614,-7.32283 -18.5039,-16 -23.6693,-26.3307 -4.99213,-10.3307 -7.49606,-22.1575 -7.49606,-35.4961 0,-22.8346 7.16535,-41.0079 21.6693,-54.5039 14.5039,-13.4961 34.6614,-20.3307 60.8346,-20.3307 20.9921,0 40.6614,5.33858 58.6614,16.1732 18,10.6614 37.0079,27.1654 56.8346,49.3228l0 93.5118z"/>
   <glyph unicode="r" horiz-adv-x="348" d="M332 423.339c0,-7.16535 -0.173228,-13.1654 -0.503937,-18 -0.330709,-4.83465 -0.992126,-8.67717 -2,-11.5118 -0.834646,-2.8189 -2.15748,-4.8189 -3.66929,-6.33071 -1.32283,-1.49606 -3.32283,-2.15748 -6,-2.15748 -2.66142,0 -5.82677,0.661417 -9.49606,2.15748 -3.82677,1.51181 -8,3.00787 -12.6614,4.33071 -4.66142,1.51181 -10,2.83465 -15.8425,4.17323 -5.82677,1.33858 -12.1575,2 -18.9921,2 -8.17323,0 -16.1732,-1.66929 -24,-4.83465 -7.66929,-3.33858 -16,-8.66142 -24.5039,-16.3307 -8.66142,-7.49606 -17.6693,-17.4961 -27.1654,-29.8268 -9.33858,-12.5039 -19.8268,-27.6693 -31.1654,-45.6693l0 -289.165c0,-2.67717 -0.661417,-4.83465 -2,-6.67717 -1.33858,-1.66929 -3.33858,-3.32283 -6.33071,-4.66142 -3.00787,-1.16535 -7.00787,-2.17323 -12.3307,-2.83465 -5.16535,-0.661417 -11.8425,-1.00787 -20,-1.00787 -8,0 -14.5039,0.346457 -19.6693,1.00787 -5.33858,0.661417 -9.49606,1.66929 -12.5039,2.83465 -3.16535,1.33858 -5.33858,2.99213 -6.50394,4.66142 -1.16535,1.84252 -1.65354,4 -1.65354,6.67717l0 439.654c0,2.67717 0.488189,4.83465 1.49606,6.67717 0.992126,1.66929 2.83465,3.32283 5.82677,4.83465 3.00787,1.49606 6.67717,2.48819 11.3386,2.99213 4.50394,0.503937 10.6614,0.677165 18.1575,0.677165 7.1811,0 13.1811,-0.173228 17.8425,-0.677165 4.83465,-0.503937 8.50394,-1.49606 11.1654,-2.99213 2.50394,-1.51181 4.50394,-3.16535 5.66929,-4.83465 0.992126,-1.84252 1.66929,-4 1.66929,-6.67717l0 -64c12,17.6693 23.3228,32 33.8268,43.1811 10.6614,10.9921 20.6614,19.8268 30,26.1575 9.49606,6.33071 18.8346,10.6614 28,13.1654 9.33858,2.50394 18.6614,3.66929 28.1732,3.66929 4.15748,0 8.99213,-0.173228 14.3307,-0.661417 5.32283,-0.503937 10.9921,-1.51181 16.8346,-2.67717 5.82677,-1.32283 11.1654,-2.83465 15.8268,-4.48819 4.66142,-1.66929 8,-3.16535 10,-4.83465 2,-1.66929 3.33858,-3.16535 3.84252,-4.67717 0.661417,-1.49606 1.32283,-3.32283 1.82677,-5.49606 0.503937,-2.33071 0.834646,-5.66929 0.992126,-10 0.173228,-4.50394 0.173228,-10.3307 0.173228,-17.8268z"/>
   <glyph unicode="z" horiz-adv-x="395" d="M355.008 34.3307c0,-6.33071 -0.503937,-11.4961 -1.51181,-16 -0.992126,-4.33071 -2.15748,-8 -3.32283,-10.8346 -1.33858,-2.66142 -3.16535,-4.66142 -5.51181,-5.82677 -2.15748,-1.16535 -4.66142,-1.66929 -7.32283,-1.66929l-270.835 0c-6.83465,0 -12.5039,2.33071 -16.8346,6.83465 -4.50394,4.50394 -6.66142,12.1732 -6.66142,22.9921l0 16.6772c0,4.50394 0.330709,8.66142 0.992126,12.1575 0.661417,3.66929 1.66929,7.16535 2.83465,10.8346 1.33858,3.51181 3.16535,7.33858 5.49606,11.5118 2.17323,4 5.00787,8.66142 8.33071,13.8268l194.173 301.165 -188.331 0c-5.16535,0 -9.33858,2.66142 -12.5039,8 -3.16535,5.49606 -4.66142,14.1732 -4.66142,26.3307 0,5.84252 0.330709,11.0079 0.992126,15.3386 0.677165,4.33071 1.66929,8 3.16535,10.8346 1.51181,2.66142 3.33858,4.66142 5.33858,5.82677 2.17323,1.16535 4.66142,1.66929 7.66929,1.66929l252.331 0c3.49606,0 6.66142,-0.503937 9.49606,-1.49606 2.83465,-1.00787 5.16535,-2.50394 7.16535,-4.83465 1.84252,-2.33071 3.51181,-5.16535 4.67717,-8.83465 0.992126,-3.49606 1.65354,-8.17323 1.65354,-13.6693l0 -15.6693c0,-4.48819 -0.330709,-8.83465 -0.992126,-12.6614 -0.661417,-4 -1.66929,-7.82677 -3.00787,-11.4961 -1.32283,-3.84252 -2.99213,-7.84252 -5.32283,-12 -2.33071,-4.17323 -5.00787,-9.00787 -8.33071,-14.1732l-193.165 -301.165 206.331 0c2.66142,0 4.99213,-0.503937 7.16535,-1.66929 2.15748,-1.16535 3.82677,-2.99213 5.32283,-5.66929 1.51181,-2.66142 2.67717,-6.15748 3.66929,-10.4882 1.00787,-4.50394 1.51181,-9.66929 1.51181,-15.8425z"/>
   <glyph unicode="i" horiz-adv-x="229" d="M156 12.1732c0,-2.67717 -0.661417,-4.83465 -2,-6.67717 -1.33858,-1.66929 -3.33858,-3.32283 -6.33071,-4.66142 -3.00787,-1.16535 -7.00787,-2.17323 -12.3307,-2.83465 -5.16535,-0.661417 -11.8425,-1.00787 -20,-1.00787 -8,0 -14.5039,0.346457 -19.6693,1.00787 -5.33858,0.661417 -9.49606,1.66929 -12.5039,2.83465 -3.16535,1.33858 -5.33858,2.99213 -6.50394,4.66142 -1.16535,1.84252 -1.65354,4 -1.65354,6.67717l0 439.654c0,2.34646 0.488189,4.50394 1.65354,6.34646 1.16535,2 3.33858,3.65354 6.50394,4.99213 3.00787,1.16535 7.16535,2.17323 12.5039,2.83465 5.16535,0.661417 11.6693,1.00787 19.6693,1.00787 8.15748,0 14.8346,-0.346457 20,-1.00787 5.32283,-0.661417 9.32283,-1.66929 12.3307,-2.83465 2.99213,-1.33858 4.99213,-2.99213 6.33071,-4.99213 1.33858,-1.84252 2,-4 2,-6.34646l0 -439.654zm9.00787 587.827c0,-18.9921 -3.66929,-31.8268 -10.8346,-38.6614 -7.16535,-6.83465 -20.3465,-10.3307 -39.6693,-10.3307 -19.0079,0 -32,3.32283 -39.0079,10 -6.99213,6.66142 -10.4882,19.3228 -10.4882,38 0,18.9921 3.65354,31.8268 10.8189,38.6614 7.1811,6.83465 20.3465,10.3307 39.6693,10.3307 19.0079,0 32,-3.33858 39.0079,-10 6.99213,-6.66142 10.5039,-19.3386 10.5039,-38z"/>
  </font>
 </defs>
 <g id="Ebene_x0020_1">
  <metadata id="CorelCorpID_0Corel-Layer"/>
  <g id="_2757319909664">
   <path fill="#A2D9F7" fill-rule="nonzero" stroke="#2B2A29" stroke-width="70.56" d="M5071 12009l0 -3499 448 0 -896 -1166 -896 1166 448 0 0 3499 896 0zm0 -1750m224 -1749m-224 -583m-896 0m-224 583m224 1749m448 1750"/>
   <g transform="matrix(2.64845E-14 -1 1 2.64845E-14 -10018.1 22138.1)">
    <text x="10500" y="14850"  fill="#2B2A29" font-weight="normal" font-size="635px" font-family="Calibri">Ende</text>
   </g>
  </g>
  <g id="_2757319909440">
   <path fill="#E22B2F" fill-rule="nonzero" stroke="#2B2A29" stroke-width="70.56" d="M7296 12060l0 -3499 448 0 -896 -1166 -896 1166 448 0 0 3499 896 0zm0 -1750m224 -1749m-224 -583m-896 0m-224 583m224 1749m448 1750"/>
   <g transform="matrix(2.64845E-14 -1 1 2.64845E-14 -7806.48 22268.2)">
    <text x="10500" y="14850"  fill="#2B2A29" font-weight="normal" font-size="635px" font-family="Calibri">Speicherzeiger</text>
   </g>
  </g>
  <g id="_2757319907168">
   <path fill="#FFED00" fill-rule="nonzero" stroke="#2B2A29" stroke-width="70.56" d="M9277 12024l0 -3498 448 0 -896 -1167 -896 1167 448 0 0 3498 896 0zm0 -1749m224 -1749m-224 -583m-896 0m-224 583m224 1749m448 1749"/>
   <g transform="matrix(2.64845E-14 -1 1 2.64845E-14 -5825.72 22206.5)">
    <text x="10500" y="14850"  fill="#2B2A29" font-weight="normal" font-size="635px" font-family="Calibri">Bestes</text>
   </g>
  </g>
  <g id="_2757319905664">
   <rect fill="none" stroke="#2B2A29" stroke-width="70.56" x="1393" y="1488" width="3428" height="4727"/>
   <line fill="none" stroke="#2B2A29" stroke-width="70.56" x1="1393" y1="2714" x2="4821" y2= "2714" />
   <text x="2659" y="2280"  fill="#2B2A29" font-weight="normal" font-size="635px" font-family="Calibri">#1</text>
  </g>
  <g id="_2757319906144">
   <rect fill="none" stroke="#2B2A29" stroke-width="70.56" x="5036" y="1488" width="3428" height="4727"/>
   <line fill="none" stroke="#2B2A29" stroke-width="70.56" x1="5036" y1="2714" x2="8464" y2= "2714" />
   <text x="6330" y="2332"  fill="#2B2A29" font-weight="normal" font-size="635px" font-family="Calibri">#2</text>
  </g>
  <g id="_2757319903968">
   <rect fill="none" stroke="#2B2A29" stroke-width="70.56" x="8679" y="1488" width="3428" height="4727"/>
   <line fill="none" stroke="#2B2A29" stroke-width="70.56" x1="8679" y1="2714" x2="12107" y2= "2714" />
   <text x="10003" y="2279"  fill="#2B2A29" font-weight="normal" font-size="635px" font-family="Calibri">#3</text>
  </g>
  <g id="_2757319902880">
   <rect fill="none" stroke="#2B2A29" stroke-width="70.56" x="12322" y="1488" width="3428" height="4727"/>
   <line fill="none" stroke="#2B2A29" stroke-width="70.56" x1="12322" y1="2714" x2="15750" y2= "2714" />
   <text x="13645" y="2306"  fill="#2B2A29" font-weight="normal" font-size="635px" font-family="Calibri">#4</text>
  </g>
  <g id="_2757319900960">
   <rect fill="none" stroke="#2B2A29" stroke-width="70.56" x="15965" y="1488" width="3428" height="4727"/>
   <line fill="none" stroke="#2B2A29" stroke-width="70.56" x1="15965" y1="2714" x2="19393" y2= "2714" />
   <text x="17327" y="2263"  fill="#2B2A29" font-weight="normal" font-size="635px" font-family="Calibri">#5</text>
  </g>
  <g id="_2757319931744">
   <path fill="#B3CD38" fill-rule="nonzero" stroke="#2B2A29" stroke-width="70.56" d="M2917 11981l0 -3498 448 0 -896 -1167 -896 1167 448 0 0 3498 896 0zm0 -1749m224 -1749m-224 -583m-896 0m-224 583m224 1749m448 1749"/>
   <g transform="matrix(2.64845E-14 -1 1 2.64845E-14 -12226.5 22150.3)">
    <text x="10500" y="14850"  fill="#2B2A29" font-weight="normal" font-size="635px" font-family="Calibri">Anfang</text>
   </g>
  </g>
  <rect fill="#FBF2C7" stroke="#2B2A29" stroke-width="7.62" x="11443" y="7014" width="2000" height="3000"/>
  <rect fill="#FBF2C7" stroke="#2B2A29" stroke-width="7.62" x="13443" y="7014" width="2000" height="3000"/>
  <rect fill="#FBF2C7" stroke="#2B2A29" stroke-width="7.62" x="15443" y="7014" width="2000" height="3000"/>
  <rect fill="#FBF2C7" stroke="#2B2A29" stroke-width="7.62" x="17443" y="7014" width="2000" height="3000"/>
  <text x="12086" y="8915"  fill="#2B2A29" font-weight="bold" font-size="1270px" font-family="Calibri">A</text>
  <text x="14086" y="8915"  fill="#2B2A29" font-weight="bold" font-size="1270px" font-family="Calibri">B</text>
  <text x="16086" y="8915"  fill="#2B2A29" font-weight="bold" font-size="1270px" font-family="Calibri">C</text>
  <text x="18086" y="8915"  fill="#2B2A29" font-weight="bold" font-size="1270px" font-family="Calibri">D</text>
  <rect fill="#FBF2C7" stroke="#2B2A29" stroke-width="7.62" x="11443" y="10014" width="2000" height="3000"/>
  <rect fill="#FBF2C7" stroke="#2B2A29" stroke-width="7.62" x="13443" y="10014" width="2000" height="3000"/>
  <rect fill="#FBF2C7" stroke="#2B2A29" stroke-width="7.62" x="15443" y="10014" width="2000" height="3000"/>
  <rect fill="#FBF2C7" stroke="#2B2A29" stroke-width="7.62" x="17443" y="10014" width="2000" height="3000"/>
  <text x="12086" y="11915"  fill="#2B2A29" font-weight="bold" font-size="1270px" font-family="Calibri">E</text>
  <text x="14086" y="11915"  fill="#2B2A29" font-weight="bold" font-size="1270px" font-family="Calibri">F</text>
  <text x="16086" y="11915"  fill="#2B2A29" font-weight="bold" font-size="1270px" font-family="Calibri">G</text>
  <text x="18086" y="11915"  fill="#2B2A29" font-weight="bold" font-size="1270px" font-family="Calibri">H</text>
  <g id="_2757270308736">
   <path fill="#A2D9F7" fill-rule="nonzero" stroke="#2B2A29" stroke-width="70.56" d="M4964 24994l0 -3498 448 0 -896 -1167 -896 1167 448 0 0 3498 896 0zm0 -1749m224 -1749m-224 -583m-896 0m-224 583m224 1749m448 1749"/>
   <g transform="matrix(2.64845E-14 -1 1 2.64845E-14 -10125 35123.7)">
    <text x="10500" y="14850"  fill="#2B2A29" font-weight="normal" font-size="635px" font-family="Calibri">Ende</text>
   </g>
  </g>
  <g id="_2757270308896">
   <path fill="#E22B2F" fill-rule="nonzero" stroke="#2B2A29" stroke-width="70.56" d="M7189 25045l0 -3498 448 0 -896 -1167 -896 1167 448 0 0 3498 896 0zm0 -1749m224 -1749m-224 -584m-896 0m-224 584m224 1749m448 1749"/>
   <g transform="matrix(2.64845E-14 -1 1 2.64845E-14 -7913.41 35253.8)">
    <text x="10500" y="14850"  fill="#2B2A29" font-weight="normal" font-size="635px" font-family="Calibri">Speicherzeiger</text>
   </g>
  </g>
  <g id="_2757270308416">
   <path fill="#FFED00" fill-rule="nonzero" stroke="#2B2A29" stroke-width="70.56" d="M9170 25010l0 -3499 448 0 -896 -1166 -896 1166 448 0 0 3499 896 0zm0 -1749m224 -1750m-224 -583m-896 0m-224 583m224 1750m448 1749"/>
   <g transform="matrix(2.64845E-14 -1 1 2.64845E-14 -5932.65 35192.1)">
    <text x="10500" y="14850"  fill="#2B2A29" font-weight="normal" font-size="635px" font-family="Calibri">Bestes</text>
   </g>
  </g>
  <g id="_2757270307872">
   <rect fill="none" stroke="#2B2A29" stroke-width="70.56" x="1286" y="14473" width="3428" height="4727"/>
   <line fill="none" stroke="#2B2A29" stroke-width="70.56" x1="1286" y1="15700" x2="4714" y2= "15700" />
   <text x="2552" y="15265"  fill="#2B2A29" font-weight="normal" font-size="635px" font-family="Calibri">#1</text>
  </g>
  <g id="_2757270320896">
   <rect fill="none" stroke="#2B2A29" stroke-width="70.56" x="4929" y="14473" width="3428" height="4727"/>
   <line fill="none" stroke="#2B2A29" stroke-width="70.56" x1="4929" y1="15700" x2="8357" y2= "15700" />
   <text x="6223" y="15318"  fill="#2B2A29" font-weight="normal" font-size="635px" font-family="Calibri">#2</text>
  </g>
  <g id="_2757270320544">
   <rect fill="none" stroke="#2B2A29" stroke-width="70.56" x="8572" y="14473" width="3428" height="4727"/>
   <line fill="none" stroke="#2B2A29" stroke-width="70.56" x1="8572" y1="15700" x2="12000" y2= "15700" />
   <text x="9896" y="15265"  fill="#2B2A29" font-weight="normal" font-size="635px" font-family="Calibri">#3</text>
  </g>
  <g id="_2757270320640">
   <rect fill="none" stroke="#2B2A29" stroke-width="70.56" x="12215" y="14473" width="3428" height="4727"/>
   <line fill="none" stroke="#2B2A29" stroke-width="70.56" x1="12215" y1="15700" x2="15643" y2= "15700" />
   <text x="13538" y="15292"  fill="#2B2A29" font-weight="normal" font-size="635px" font-family="Calibri">#4</text>
  </g>
  <g id="_2757270317632">
   <rect fill="none" stroke="#2B2A29" stroke-width="70.56" x="15858" y="14473" width="3428" height="4727"/>
   <line fill="none" stroke="#2B2A29" stroke-width="70.56" x1="15858" y1="15700" x2="19286" y2= "15700" />
   <text x="17220" y="15249"  fill="#2B2A29" font-weight="normal" font-size="635px" font-family="Calibri">#5</text>
  </g>
  <g id="_2757270314848">
   <path fill="#B3CD38" fill-rule="nonzero" stroke="#2B2A29" stroke-width="70.56" d="M2810 24967l0 -3499 448 0 -896 -1166 -896 1166 448 0 0 3499 896 0zm0 -1749m224 -1750m-224 -583m-896 0m-224 583m224 1750m448 1749"/>
   <g transform="matrix(2.64845E-14 -1 1 2.64845E-14 -12333.4 35135.8)">
    <text x="10500" y="14850"  fill="#2B2A29" font-weight="normal" font-size="635px" font-family="Calibri">Anfang</text>
   </g>
  </g>
  <rect fill="#FBF2C7" stroke="#2B2A29" stroke-width="7.62" x="11336" y="20000" width="2000" height="3000"/>
  <rect fill="#FBF2C7" stroke="#2B2A29" stroke-width="7.62" x="13336" y="20000" width="2000" height="3000"/>
  <rect fill="#FBF2C7" stroke="#2B2A29" stroke-width="7.62" x="15336" y="20000" width="2000" height="3000"/>
  <rect fill="#FBF2C7" stroke="#2B2A29" stroke-width="7.62" x="17336" y="20000" width="2000" height="3000"/>
  <text x="11979" y="21901"  fill="#2B2A29" font-weight="bold" font-size="1270px" font-family="Calibri">A</text>
  <text x="13979" y="21901"  fill="#2B2A29" font-weight="bold" font-size="1270px" font-family="Calibri">B</text>
  <text x="15979" y="21901"  fill="#2B2A29" font-weight="bold" font-size="1270px" font-family="Calibri">C</text>
  <text x="17979" y="21901"  fill="#2B2A29" font-weight="bold" font-size="1270px" font-family="Calibri">D</text>
  <rect fill="#FBF2C7" stroke="#2B2A29" stroke-width="7.62" x="11336" y="23000" width="2000" height="3000"/>
  <rect fill="#FBF2C7" stroke="#2B2A29" stroke-width="7.62" x="13336" y="23000" width="2000" height="3000"/>
  <rect fill="#FBF2C7" stroke="#2B2A29" stroke-width="7.62" x="15336" y="23000" width="2000" height="3000"/>
  <rect fill="#FBF2C7" stroke="#2B2A29" stroke-width="7.62" x="17336" y="23000" width="2000" height="3000"/>
  <text x="11979" y="24901"  fill="#2B2A29" font-weight="bold" font-size="1270px" font-family="Calibri">E</text>
  <text x="13979" y="24901"  fill="#2B2A29" font-weight="bold" font-size="1270px" font-family="Calibri">F</text>
  <text x="15979" y="24901"  fill="#2B2A29" font-weight="bold" font-size="1270px" font-family="Calibri">G</text>
  <text x="17979" y="24901"  fill="#2B2A29" font-weight="bold" font-size="1270px" font-family="Calibri">H</text>
 </g>
</svg>
